%YAML 1.1
%TAG !u! tag:unity3d.com,2011:
--- !u!114 &11400000
MonoBehaviour:
  m_ObjectHideFlags: 0
  m_CorrespondingSourceObject: {fileID: 0}
  m_PrefabInstance: {fileID: 0}
  m_PrefabAsset: {fileID: 0}
  m_GameObject: {fileID: 0}
  m_Enabled: 1
  m_EditorHideFlags: 0
  m_Script: {fileID: 11500000, guid: 021481805d9268c48bc6e39faeb45f5e, type: 3}
  m_Name: SimIOSAdUnitIds
  m_EditorClassIdentifier: 
  bannerAdUnitId: ca-app-pub-6431421570426948/4277719378
  interstitialAdUnitId: ca-app-pub-6431421570426948/2903808396
  rewardedAdUnitId: ca-app-pub-6431421570426948/1651556033
