%YAML 1.1
%TAG !u! tag:unity3d.com,2011:
--- !u!114 &11400000
MonoBehaviour:
  m_ObjectHideFlags: 0
  m_CorrespondingSourceObject: {fileID: 0}
  m_PrefabInstance: {fileID: 0}
  m_PrefabAsset: {fileID: 0}
  m_GameObject: {fileID: 0}
  m_Enabled: 1
  m_EditorHideFlags: 0
  m_Script: {fileID: 11500000, guid: 021481805d9268c48bc6e39faeb45f5e, type: 3}
  m_Name: SimIOSTestAdUnitIds
  m_EditorClassIdentifier: 
  isEnabled: 1
  platform: 2
  bannerAdUnitId: ca-app-pub-3940256099942544/6300978111
  interstitialAdUnitId: ca-app-pub-3940256099942544/1033173712
  rewardedAdUnitId: ca-app-pub-3940256099942544/5224354917
