%YAML 1.1
%TAG !u! tag:unity3d.com,2011:
--- !u!114 &11400000
MonoBehaviour:
  m_ObjectHideFlags: 0
  m_CorrespondingSourceObject: {fileID: 0}
  m_PrefabInstance: {fileID: 0}
  m_PrefabAsset: {fileID: 0}
  m_GameObject: {fileID: 0}
  m_Enabled: 1
  m_EditorHideFlags: 0
  m_Script: {fileID: 11500000, guid: ee4abe19dc056a84eb2ff611f3845b37, type: 3}
  m_Name: KarmaConfigSettings
  m_EditorClassIdentifier: 
  environmentConfig: {fileID: 0}
  scenarioInfos:
  - {fileID: 4900000, guid: b3ac000eecf4e1149bfff0bbf7974798, type: 3}
  - {fileID: 4900000, guid: a0a58e1e673924abc963e36759224ef0, type: 3}
  actionConfig: {fileID: 4900000, guid: 2812c6c40ea7b6a489ada3b56c98e1e0, type: 3}
  actorConfig:
  - {fileID: 4900000, guid: 138c7ce49af90ff46a5a11a1cf844f42, type: 3}
  - {fileID: 4900000, guid: bfdadd41dac76b241a189e35fcdb939a, type: 3}
  actorDummy: {fileID: 172793625051190227, guid: 3252c186929f23a45aac3a665b9ad3dd,
    type: 3}
  reasonerConfig: {fileID: 4900000, guid: 186ccd5e33d9bc947a88deb843e672bd, type: 3}
  reasonerData: {fileID: 4900000, guid: 3d8fab29ee1ef724080238ca1fdebcf7, type: 3}
  localization:
  - {fileID: 4900000, guid: 29e615d38e9bfb847a66a9e955646699, type: 3}
  - {fileID: 4900000, guid: 6bb7d200c0f70eb4c9b304bbea86c3d9, type: 3}
