%YAML 1.1
%TAG !u! tag:unity3d.com,2011:
--- !u!114 &11400000
MonoBehaviour:
  m_ObjectHideFlags: 0
  m_CorrespondingSourceObject: {fileID: 0}
  m_PrefabInstance: {fileID: 0}
  m_PrefabAsset: {fileID: 0}
  m_GameObject: {fileID: 0}
  m_Enabled: 1
  m_EditorHideFlags: 0
  m_Script: {fileID: 11500000, guid: effa37c81b266ad40a353a13ca2adc4b, type: 3}
  m_Name: AdsInfo
  m_EditorClassIdentifier: 
  EnglishImage: {fileID: 21300000, guid: 561d40a2b3a834d49b80cc2ad1b7cb46, type: 3}
  TurkishImage: {fileID: 21300000, guid: d5c058536748445939cf6d72ae3c6002, type: 3}
  AdsInfos:
  - Clip: {fileID: 32900000, guid: 676e6eecf4014b14f9efaa7763727c2b, type: 3}
    Image: {fileID: 0}
    FallbackImageDuration: 0
    Color: {r: 0, g: 0, b: 0, a: 0}
    Position: 0
  - Clip: {fileID: 32900000, guid: 27b8448ded184534ba9743df7ead792d, type: 3}
    Image: {fileID: 0}
    FallbackImageDuration: 0
    Color: {r: 0, g: 0, b: 0, a: 0}
    Position: 0
  - Clip: {fileID: 32900000, guid: 1ddd7205af0464b43b6d1a3c30bbed5c, type: 3}
    Image: {fileID: 0}
    FallbackImageDuration: 0
    Color: {r: 0, g: 0, b: 0, a: 0}
    Position: 0
  - Clip: {fileID: 32900000, guid: 4e75a11079243db45b1d1f2d6201a372, type: 3}
    Image: {fileID: 0}
    FallbackImageDuration: 0
    Color: {r: 0, g: 0, b: 0, a: 0}
    Position: 0
  - Clip: {fileID: 32900000, guid: 6e7e0cbe8f8ac6447a18e0366f83ba0e, type: 3}
    Image: {fileID: 0}
    FallbackImageDuration: 0
    Color: {r: 0, g: 0, b: 0, a: 0}
    Position: 0
  - Clip: {fileID: 32900000, guid: 7f77e2b95bcb7414dad4ba518a434102, type: 3}
    Image: {fileID: 0}
    FallbackImageDuration: 0
    Color: {r: 0, g: 0, b: 0, a: 0}
    Position: 0
