# 3ds Max Wavefront OBJ Exporter v0.97b - (c)2007 guruware
# File Created: 30.07.2015 14:30:02

mtllib Books.mtl

#
# object Books
#

v  -0.0152 0.3039 -0.1272
v  0.0114 0.0039 -0.1272
v  -0.0348 -0.0001 -0.1272
v  -0.0614 0.2999 -0.1272
v  0.0114 0.0039 0.1185
v  -0.0152 0.3039 0.1185
v  -0.0614 0.2999 0.1185
v  -0.0348 -0.0001 0.1185
v  0.0114 0.0039 0.1128
v  -0.0348 -0.0001 0.1128
v  0.2132 0.0040 -0.1272
v  0.1866 0.3040 -0.1272
v  0.1866 0.3040 0.1128
v  0.2132 0.0040 0.1128
v  -0.0114 0.2999 -0.1272
v  -0.0114 0.2999 0.1128
v  0.0348 0.3039 0.1128
v  0.0348 0.3039 -0.1272
v  -0.2132 0.2998 -0.1272
v  -0.1866 -0.0002 -0.1272
v  -0.1866 -0.0002 0.1128
v  -0.2132 0.2998 0.1128
v  0.1652 -0.0002 -0.1272
v  0.1386 0.2998 -0.1272
v  0.1348 0.3039 -0.1272
v  0.1614 0.0039 -0.1272
v  0.1152 -0.0001 -0.1272
v  0.0886 0.2999 -0.1272
v  0.0849 0.3019 -0.1272
v  0.1114 0.0039 -0.1272
v  0.0652 -0.0001 -0.1272
v  0.0385 0.3019 -0.1272
v  0.0614 0.0039 -0.1272
v  0.0152 -0.0001 -0.1272
v  -0.1652 0.3040 -0.1272
v  -0.1386 0.0040 -0.1272
v  -0.1348 -0.0001 -0.1272
v  -0.1614 0.2999 -0.1272
v  -0.1152 0.3039 -0.1272
v  -0.0886 0.0039 -0.1272
v  -0.0848 -0.0001 -0.1272
v  -0.1114 0.2999 -0.1272
v  -0.0652 0.3039 -0.1272
v  -0.0386 0.0039 -0.1272
v  0.2132 0.0040 0.1228
v  0.1866 0.3040 0.1228
v  0.1386 0.2998 0.1228
v  0.1652 -0.0002 0.1228
v  0.1614 0.0039 0.1181
v  0.1348 0.3039 0.1181
v  0.0886 0.2999 0.1181
v  0.1152 -0.0001 0.1181
v  0.1114 0.0039 0.1228
v  0.0848 0.3039 0.1228
v  0.0386 0.2999 0.1228
v  0.0652 -0.0001 0.1228
v  0.0614 0.0039 0.1185
v  0.0348 0.3039 0.1185
v  -0.0114 0.2999 0.1185
v  0.0152 -0.0001 0.1185
v  -0.2132 0.2998 0.1272
v  -0.1866 -0.0002 0.1272
v  -0.1386 0.0040 0.1272
v  -0.1652 0.3040 0.1272
v  -0.1614 0.2999 0.1228
v  -0.1348 -0.0001 0.1228
v  -0.0886 0.0039 0.1228
v  -0.1152 0.3039 0.1228
v  -0.1114 0.2999 0.1272
v  -0.0848 -0.0001 0.1272
v  -0.0386 0.0039 0.1272
v  -0.0652 0.3039 0.1272
v  0.1652 -0.0002 0.1128
v  0.1614 0.0039 0.1128
v  0.1152 -0.0001 0.1128
v  0.1114 0.0039 0.1128
v  0.0652 -0.0001 0.1128
v  0.0614 0.0039 0.1128
v  0.0152 -0.0001 0.1128
v  -0.1386 0.0040 0.1128
v  -0.1348 -0.0001 0.1128
v  -0.0886 0.0039 0.1128
v  -0.0848 -0.0001 0.1128
v  -0.0386 0.0039 0.1128
v  -0.1652 0.3040 0.1128
v  -0.1614 0.2999 0.1128
v  -0.1152 0.3039 0.1128
v  -0.1114 0.2999 0.1128
v  -0.0652 0.3039 0.1128
v  -0.0614 0.2999 0.1128
v  -0.0152 0.3039 0.1128
v  0.1386 0.2998 0.1128
v  0.1348 0.3039 0.1128
v  0.0886 0.2999 0.1128
v  0.0848 0.3039 0.1128
v  0.0386 0.2999 0.1128
v  0.1633 0.0019 -0.1272
v  0.1367 0.3019 -0.1272
v  0.1133 0.0019 -0.1272
v  0.0867 0.3019 -0.1272
v  0.0633 0.0019 -0.1272
v  0.0367 0.3019 -0.1272
v  0.0133 0.0019 -0.1272
v  -0.0133 0.3019 -0.1272
v  -0.1633 0.3019 -0.1272
v  -0.1367 0.0019 -0.1272
v  -0.1133 0.3019 -0.1272
v  -0.0867 0.0019 -0.1272
v  -0.0633 0.3019 -0.1272
v  -0.0367 0.0019 -0.1272
v  0.1367 0.3019 0.1128
v  0.1633 0.0019 0.1128
v  0.0867 0.3019 0.1128
v  0.1133 0.0019 0.1128
v  0.0367 0.3019 0.1128
v  0.0633 0.0019 0.1128
v  -0.0133 0.3019 0.1128
v  0.0133 0.0019 0.1128
v  -0.1367 0.0019 0.1128
v  -0.1633 0.3019 0.1128
v  -0.0867 0.0019 0.1128
v  -0.1133 0.3019 0.1128
v  -0.0367 0.0019 0.1128
v  -0.0633 0.3019 0.1128
# 124 vertices

vn 0.0000 0.0000 -1.0000
vn 0.0000 -0.0000 1.0000
vn 0.0872 -0.9962 -0.0000
vn 0.9961 0.0882 0.0000
vn -0.0872 0.9962 0.0000
vn -0.9961 -0.0882 -0.0000
vn -0.0000 0.0000 -1.0000
vn 0.2043 0.9789 0.0023
vn 0.0000 1.0000 -0.0084
vn -0.0026 1.0000 -0.0032
vn 0.2017 0.9794 0.0051
vn -0.0000 -0.0000 1.0000
vn -0.7343 -0.6788 -0.0000
vn -0.7281 -0.6854 -0.0000
vn -0.7281 -0.6855 -0.0000
vn 0.7343 0.6788 0.0000
vn 0.7281 0.6855 0.0000
vn 0.7281 0.6854 0.0000
vn 0.0054 1.0000 -0.0084
vn -0.7405 -0.6721 -0.0000
vn 0.7405 0.6721 0.0000
vn 0.0000 1.0000 0.0000
vn 0.7257 0.6880 0.0055
vn 0.9961 0.0882 -0.0000
vn -0.0872 0.9962 -0.0000
# 25 vertex normals

vt 0.7696 0.3825 0.0000
vt 0.9845 0.3635 0.0000
vt 0.9874 0.3965 0.0000
vt 0.7725 0.4156 0.0000
vt 0.3886 0.9327 0.0000
vt 0.7236 0.9327 0.0000
vt 0.7236 0.9843 0.0000
vt 0.3887 0.9843 0.0000
vt 0.9275 0.7695 0.0000
vt 0.9275 0.5490 0.0000
vt 0.9700 0.5490 0.0000
vt 0.9700 0.7695 0.0000
vt 0.0090 0.3727 0.0000
vt 0.0090 0.0088 0.0000
vt 0.3001 0.0088 0.0000
vt 0.3001 0.3727 0.0000
vt 0.0062 0.9130 0.0000
vt 0.3647 0.9130 0.0000
vt 0.3647 0.9823 0.0000
vt 0.0062 0.9823 0.0000
vt 0.3113 0.3715 0.0000
vt 0.3113 0.0077 0.0000
vt 0.6024 0.0077 0.0000
vt 0.6024 0.3715 0.0000
vt 0.7696 0.2379 0.0000
vt 0.9845 0.2189 0.0000
vt 0.9875 0.2533 0.0000
vt 0.7726 0.2723 0.0000
vt 0.7696 0.2750 0.0000
vt 0.9845 0.2560 0.0000
vt 0.9874 0.2891 0.0000
vt 0.7725 0.3081 0.0000
vt 0.7711 0.3108 0.0000
vt 0.9845 0.2918 0.0000
vt 0.9874 0.3249 0.0000
vt 0.7711 0.3440 0.0000
vt 0.7696 0.3467 0.0000
vt 0.9845 0.3276 0.0000
vt 0.9874 0.3607 0.0000
vt 0.7725 0.3798 0.0000
vt 0.9875 0.5053 0.0000
vt 0.7726 0.5243 0.0000
vt 0.7696 0.4899 0.0000
vt 0.9845 0.4709 0.0000
vt 0.9874 0.4682 0.0000
vt 0.7725 0.4872 0.0000
vt 0.7696 0.4541 0.0000
vt 0.9845 0.4351 0.0000
vt 0.9874 0.4324 0.0000
vt 0.7725 0.4514 0.0000
vt 0.7696 0.4183 0.0000
vt 0.9845 0.3993 0.0000
vt 0.3890 0.7101 0.0000
vt 0.7240 0.7101 0.0000
vt 0.7240 0.7637 0.0000
vt 0.3891 0.7637 0.0000
vt 0.3890 0.7837 0.0000
vt 0.7240 0.7837 0.0000
vt 0.7240 0.8353 0.0000
vt 0.3890 0.8353 0.0000
vt 0.3880 0.4757 0.0000
vt 0.7229 0.4757 0.0000
vt 0.7230 0.5273 0.0000
vt 0.3880 0.5273 0.0000
vt 0.3880 0.5472 0.0000
vt 0.7229 0.5472 0.0000
vt 0.7229 0.5987 0.0000
vt 0.3880 0.5987 0.0000
vt 0.7240 0.6792 0.0000
vt 0.3891 0.6792 0.0000
vt 0.3890 0.6256 0.0000
vt 0.7240 0.6256 0.0000
vt 0.7240 0.9098 0.0000
vt 0.3890 0.9098 0.0000
vt 0.3890 0.8582 0.0000
vt 0.7240 0.8582 0.0000
vt 0.7230 0.4450 0.0000
vt 0.3880 0.4450 0.0000
vt 0.3880 0.3934 0.0000
vt 0.7229 0.3934 0.0000
vt 0.8335 0.7695 0.0000
vt 0.8335 0.5490 0.0000
vt 0.8775 0.5490 0.0000
vt 0.8775 0.7695 0.0000
vt 0.7874 0.9929 0.0000
vt 0.7874 0.7724 0.0000
vt 0.8300 0.7724 0.0000
vt 0.8300 0.9929 0.0000
vt 0.8812 0.7695 0.0000
vt 0.8812 0.5490 0.0000
vt 0.9238 0.5490 0.0000
vt 0.9238 0.7695 0.0000
vt 0.8332 0.9929 0.0000
vt 0.8332 0.7724 0.0000
vt 0.8758 0.7724 0.0000
vt 0.8758 0.9929 0.0000
vt 0.9237 0.7727 0.0000
vt 0.9237 0.9932 0.0000
vt 0.8794 0.9932 0.0000
vt 0.8794 0.7727 0.0000
vt 0.8295 0.5489 0.0000
vt 0.8295 0.7694 0.0000
vt 0.7869 0.7694 0.0000
vt 0.7869 0.5489 0.0000
vt 0.9707 0.7727 0.0000
vt 0.9707 0.9932 0.0000
vt 0.9281 0.9932 0.0000
vt 0.9281 0.7727 0.0000
vt 0.0062 0.3817 0.0000
vt 0.3647 0.3817 0.0000
vt 0.3647 0.4537 0.0000
vt 0.0062 0.4537 0.0000
vt 0.0062 0.6140 0.0000
vt 0.3647 0.6140 0.0000
vt 0.3647 0.6833 0.0000
vt 0.0062 0.6833 0.0000
vt 0.0062 0.5381 0.0000
vt 0.3647 0.5381 0.0000
vt 0.3647 0.6073 0.0000
vt 0.0062 0.6073 0.0000
vt 0.0062 0.8390 0.0000
vt 0.3647 0.8390 0.0000
vt 0.3647 0.9082 0.0000
vt 0.0062 0.9082 0.0000
vt 0.3647 0.5314 0.0000
vt 0.0062 0.5314 0.0000
vt 0.0062 0.4594 0.0000
vt 0.3647 0.4594 0.0000
vt 0.3647 0.7582 0.0000
vt 0.0062 0.7582 0.0000
vt 0.0062 0.6890 0.0000
vt 0.3647 0.6890 0.0000
vt 0.3647 0.8331 0.0000
vt 0.0062 0.8332 0.0000
vt 0.0062 0.7640 0.0000
vt 0.3647 0.7641 0.0000
vt 0.9860 0.2546 0.0000
vt 0.7711 0.2737 0.0000
vt 0.9860 0.2905 0.0000
vt 0.7711 0.3095 0.0000
vt 0.9860 0.3263 0.0000
vt 0.7711 0.3453 0.0000
vt 0.9860 0.3621 0.0000
vt 0.7711 0.3811 0.0000
vt 0.7711 0.4886 0.0000
vt 0.9860 0.4695 0.0000
vt 0.7711 0.4528 0.0000
vt 0.9860 0.4337 0.0000
vt 0.7711 0.4169 0.0000
vt 0.9860 0.3979 0.0000
vt 0.9761 0.0157 0.0000
vt 0.9785 0.0177 0.0000
vt 0.6399 0.0137 0.0000
vt 0.6375 0.0117 0.0000
vt 0.9773 0.0360 0.0000
vt 0.9798 0.0380 0.0000
vt 0.6412 0.0340 0.0000
vt 0.6387 0.0321 0.0000
vt 0.9760 0.0434 0.0000
vt 0.9784 0.0454 0.0000
vt 0.6398 0.0414 0.0000
vt 0.6374 0.0394 0.0000
vt 0.9750 0.0504 0.0000
vt 0.9775 0.0523 0.0000
vt 0.6389 0.0483 0.0000
vt 0.6364 0.0464 0.0000
vt 0.6374 0.0189 0.0000
vt 0.6349 0.0169 0.0000
vt 0.9735 0.0209 0.0000
vt 0.9760 0.0228 0.0000
vt 0.6371 0.0252 0.0000
vt 0.6347 0.0232 0.0000
vt 0.9733 0.0272 0.0000
vt 0.9757 0.0292 0.0000
vt 0.6378 0.0533 0.0000
vt 0.6354 0.0513 0.0000
vt 0.9740 0.0553 0.0000
vt 0.9764 0.0573 0.0000
vt 0.9098 0.1697 0.0000
vt 0.9098 0.1728 0.0000
vt 0.6399 0.1728 0.0000
vt 0.6399 0.1697 0.0000
vt 0.9086 0.1077 0.0000
vt 0.9086 0.1108 0.0000
vt 0.6388 0.1108 0.0000
vt 0.6388 0.1077 0.0000
vt 0.9086 0.1256 0.0000
vt 0.9086 0.1288 0.0000
vt 0.6388 0.1288 0.0000
vt 0.6388 0.1256 0.0000
vt 0.9086 0.1164 0.0000
vt 0.9086 0.1195 0.0000
vt 0.6388 0.1195 0.0000
vt 0.6388 0.1164 0.0000
vt 0.6397 0.0623 0.0000
vt 0.6397 0.0592 0.0000
vt 0.9095 0.0592 0.0000
vt 0.9095 0.0623 0.0000
vt 0.6395 0.0716 0.0000
vt 0.6395 0.0684 0.0000
vt 0.9093 0.0684 0.0000
vt 0.9093 0.0716 0.0000
vt 0.6399 0.1519 0.0000
vt 0.6399 0.1488 0.0000
vt 0.9098 0.1488 0.0000
vt 0.9098 0.1519 0.0000
vt 0.9092 0.0905 0.0000
vt 0.9092 0.0937 0.0000
vt 0.6394 0.0937 0.0000
vt 0.6394 0.0905 0.0000
vt 0.9086 0.1343 0.0000
vt 0.9086 0.1374 0.0000
vt 0.6388 0.1374 0.0000
vt 0.6388 0.1343 0.0000
vt 0.9090 0.0995 0.0000
vt 0.9090 0.1026 0.0000
vt 0.6392 0.1026 0.0000
vt 0.6392 0.0995 0.0000
vt 0.9098 0.1612 0.0000
vt 0.9098 0.1643 0.0000
vt 0.6399 0.1643 0.0000
vt 0.6399 0.1612 0.0000
vt 0.6388 0.1433 0.0000
vt 0.6388 0.1402 0.0000
vt 0.9086 0.1402 0.0000
vt 0.9086 0.1433 0.0000
vt 0.6393 0.0844 0.0000
vt 0.6393 0.0826 0.0000
vt 0.9091 0.0819 0.0000
vt 0.9091 0.0849 0.0000
vt 0.6399 0.1779 0.0000
vt 0.6399 0.1748 0.0000
vt 0.9098 0.1748 0.0000
vt 0.9098 0.1779 0.0000
vt 0.9735 0.0137 0.0000
vt 0.6349 0.0098 0.0000
vt 0.9749 0.0341 0.0000
vt 0.6363 0.0301 0.0000
vt 0.9735 0.0415 0.0000
vt 0.6349 0.0375 0.0000
vt 0.9726 0.0484 0.0000
vt 0.6340 0.0444 0.0000
vt 0.6399 0.0208 0.0000
vt 0.9785 0.0248 0.0000
vt 0.6395 0.0271 0.0000
vt 0.9781 0.0311 0.0000
vt 0.6402 0.0552 0.0000
vt 0.9788 0.0592 0.0000
vt 0.9098 0.1665 0.0000
vt 0.6399 0.1665 0.0000
vt 0.9086 0.1046 0.0000
vt 0.6388 0.1046 0.0000
vt 0.9086 0.1225 0.0000
vt 0.6388 0.1225 0.0000
vt 0.9086 0.1133 0.0000
vt 0.6388 0.1133 0.0000
vt 0.6397 0.0655 0.0000
vt 0.9095 0.0655 0.0000
vt 0.6395 0.0747 0.0000
vt 0.9093 0.0747 0.0000
vt 0.6399 0.1550 0.0000
vt 0.9098 0.1550 0.0000
vt 0.9092 0.0874 0.0000
vt 0.6394 0.0874 0.0000
vt 0.9086 0.1312 0.0000
vt 0.6388 0.1312 0.0000
vt 0.9090 0.0964 0.0000
vt 0.6392 0.0964 0.0000
vt 0.9098 0.1581 0.0000
vt 0.6399 0.1581 0.0000
vt 0.6388 0.1465 0.0000
vt 0.9086 0.1465 0.0000
vt 0.6399 0.1835 0.0000
vt 0.6399 0.1803 0.0000
vt 0.9098 0.1803 0.0000
vt 0.9098 0.1835 0.0000
vt 0.6395 0.0794 0.0000
vt 0.6395 0.0776 0.0000
vt 0.9093 0.0771 0.0000
vt 0.9093 0.0800 0.0000
vt 0.3823 0.9843 0.0000
vt 0.3823 0.9327 0.0000
vt 0.3886 0.9263 0.0000
vt 0.7236 0.9263 0.0000
vt 0.7300 0.9327 0.0000
vt 0.7300 0.9843 0.0000
vt 0.7236 0.9906 0.0000
vt 0.3887 0.9906 0.0000
vt 0.3890 0.6990 0.0000
vt 0.7240 0.6990 0.0000
vt 0.7351 0.7101 0.0000
vt 0.7351 0.7637 0.0000
vt 0.7240 0.7748 0.0000
vt 0.3891 0.7748 0.0000
vt 0.3779 0.7637 0.0000
vt 0.3779 0.7101 0.0000
vt 0.3831 0.8353 0.0000
vt 0.3831 0.7837 0.0000
vt 0.3890 0.7778 0.0000
vt 0.7240 0.7778 0.0000
vt 0.7299 0.7837 0.0000
vt 0.7299 0.8353 0.0000
vt 0.7240 0.8412 0.0000
vt 0.3890 0.8412 0.0000
vt 0.3769 0.5273 0.0000
vt 0.3769 0.4757 0.0000
vt 0.3880 0.4646 0.0000
vt 0.7229 0.4646 0.0000
vt 0.7341 0.4757 0.0000
vt 0.7341 0.5273 0.0000
vt 0.7230 0.5384 0.0000
vt 0.3880 0.5384 0.0000
vt 0.3816 0.5987 0.0000
vt 0.3816 0.5472 0.0000
vt 0.3880 0.5408 0.0000
vt 0.7229 0.5408 0.0000
vt 0.7293 0.5472 0.0000
vt 0.7293 0.5987 0.0000
vt 0.7229 0.6051 0.0000
vt 0.3880 0.6051 0.0000
vt 0.3730 0.6792 0.0000
vt 0.3730 0.6256 0.0000
vt 0.3890 0.6096 0.0000
vt 0.7240 0.6096 0.0000
vt 0.7401 0.6256 0.0000
vt 0.7401 0.6792 0.0000
vt 0.7240 0.6953 0.0000
vt 0.3891 0.6953 0.0000
vt 0.3779 0.9098 0.0000
vt 0.3779 0.8582 0.0000
vt 0.3890 0.8471 0.0000
vt 0.7240 0.8471 0.0000
vt 0.7351 0.8582 0.0000
vt 0.7351 0.9098 0.0000
vt 0.7240 0.9209 0.0000
vt 0.3890 0.9209 0.0000
vt 0.3719 0.4450 0.0000
vt 0.3719 0.3934 0.0000
vt 0.3880 0.3774 0.0000
vt 0.7229 0.3774 0.0000
vt 0.7390 0.3934 0.0000
vt 0.7390 0.4450 0.0000
vt 0.7230 0.4611 0.0000
vt 0.3880 0.4611 0.0000
# 344 texture coords

g Books
usemtl wire_088199225
s 1
f 1/1/1 2/2/1 3/3/1 4/4/1 
f 5/5/2 6/6/2 7/7/2 8/8/2 
s 2
f 2/9/3 9/10/3 10/11/3 3/12/3 
f 11/13/4 12/14/4 13/15/4 14/16/4 
f 15/17/5 16/18/5 17/19/5 18/20/5 
f 19/21/6 20/22/6 21/23/6 22/24/6 
s 1
f 12/25/7 11/26/7 23/27/1 24/28/1 
f 25/29/1 26/30/1 27/31/1 28/32/1 
f 29/33/7 30/34/1 31/35/1 32/36/1 
f 18/37/1 33/38/1 34/39/1 15/40/1 
f 20/41/7 19/42/7 35/43/1 36/44/1 
f 37/45/1 38/46/1 39/47/1 40/48/1 
f 41/49/1 42/50/1 43/51/1 44/52/1 
f 45/53/2 46/54/2 47/55/2 48/56/2 
f 49/57/2 50/58/2 51/59/2 52/60/2 
f 53/61/2 54/62/2 55/63/2 56/64/2 
f 57/65/2 58/66/2 59/67/2 60/68/2 
f 61/69/2 62/70/2 63/71/2 64/72/2 
f 65/73/2 66/74/2 67/75/2 68/76/2 
f 69/77/2 70/78/2 71/79/2 72/80/2 
s 4
f 11/81/3 14/82/3 73/83/3 23/84/3 
s 2
f 26/85/3 74/86/3 75/87/3 27/88/3 
f 30/89/3 76/90/3 77/91/3 31/92/3 
f 33/93/3 78/94/3 79/95/3 34/96/3 
s 4
f 21/97/3 20/98/3 36/99/3 80/100/3 
s 2
f 81/101/3 37/102/3 40/103/3 82/104/3 
f 83/105/3 41/106/3 44/107/3 84/108/3 
s 4
f 19/109/5 22/110/5 85/111/5 35/112/5 
s 2
f 38/113/5 86/114/5 87/115/5 39/116/5 
f 42/117/5 88/118/5 89/119/5 43/120/5 
f 4/121/5 90/122/5 91/123/5 1/124/5 
s 4
f 13/125/5 12/126/5 24/127/5 92/128/5 
s 2
f 93/129/5 25/130/5 28/131/5 94/132/5 
f 95/133/8 29/134/9 32/135/10 96/136/11 
s 1
f 97/137/1 26/30/1 25/29/1 98/138/1 
f 99/139/1 30/34/1 29/33/7 100/140/1 
f 101/141/1 33/38/1 18/37/1 102/142/1 
f 103/143/1 2/2/1 1/1/1 104/144/1 
f 105/145/1 38/46/1 37/45/1 106/146/1 
f 107/147/1 42/50/1 41/49/1 108/148/1 
f 109/149/1 4/4/1 3/3/1 110/150/1 
f 111/151/12 93/152/12 74/153/12 112/154/12 
f 113/155/12 95/156/12 76/157/12 114/158/12 
f 115/159/12 17/160/12 78/161/12 116/162/12 
f 117/163/12 91/164/12 9/165/12 118/166/12 
f 119/167/12 81/168/12 86/169/12 120/170/12 
f 121/171/12 83/172/12 88/173/12 122/174/12 
f 123/175/12 10/176/12 90/177/12 124/178/12 
s 8
f 112/179/13 74/180/14 26/181/14 97/182/13 
s 4
f 114/183/14 76/184/14 30/185/14 99/186/14 
f 116/187/15 78/188/15 33/189/14 101/190/15 
f 118/191/15 9/192/15 2/193/14 103/194/15 
s 8
f 106/195/13 37/196/14 81/197/14 119/198/13 
s 4
f 108/199/14 41/200/14 83/201/14 121/202/14 
f 110/203/15 3/204/15 10/205/14 123/206/15 
s 8
f 120/207/16 86/208/17 38/209/18 105/210/16 
s 4
f 122/211/18 88/212/18 42/213/18 107/214/18 
f 124/215/18 90/216/18 4/217/18 109/218/18 
f 117/219/17 16/220/17 15/221/17 104/222/17 
s 8
f 98/223/16 25/224/17 93/225/17 111/226/16 
s 2
f 100/227/19 29/228/9 95/229/8 113/230/17 
s 4
f 102/231/18 18/232/18 17/233/17 115/234/17 
s 1
f 23/27/1 97/137/1 98/138/1 24/28/1 
f 27/31/1 99/139/1 100/140/1 28/32/1 
f 31/35/1 101/141/1 102/142/1 32/36/1 
f 34/39/1 103/143/1 104/144/1 15/40/1 
f 35/43/1 105/145/1 106/146/1 36/44/1 
f 39/47/1 107/147/1 108/148/1 40/48/1 
f 43/51/1 109/149/1 110/150/1 44/52/1 
f 92/235/12 111/151/12 112/154/12 73/236/12 
f 94/237/12 113/155/12 114/158/12 75/238/12 
f 96/239/12 115/159/12 116/162/12 77/240/12 
f 16/241/12 117/163/12 118/166/12 79/242/12 
f 80/243/12 119/167/12 120/170/12 85/244/12 
f 82/245/12 121/171/12 122/174/12 87/246/12 
f 84/247/12 123/175/12 124/178/12 89/248/12 
s 8
f 73/249/20 112/179/13 97/182/13 23/250/20 
s 4
f 75/251/14 114/183/14 99/186/14 27/252/15 
f 77/253/14 116/187/15 101/190/15 31/254/15 
f 79/255/14 118/191/15 103/194/15 34/256/15 
s 8
f 36/257/20 106/195/13 119/198/13 80/258/20 
s 4
f 40/259/15 108/199/14 121/202/14 82/260/15 
f 44/261/14 110/203/15 123/206/15 84/262/15 
s 8
f 85/263/21 120/207/16 105/210/16 35/264/21 
s 4
f 87/265/17 122/211/18 107/214/18 39/266/17 
f 89/267/18 124/215/18 109/218/18 43/268/18 
f 91/269/18 117/219/17 104/222/17 1/270/17 
s 8
f 24/271/21 98/223/16 111/226/16 92/272/21 
s 4
f 28/273/17 100/274/17 113/275/17 94/276/17 
s 2
f 32/277/10 102/278/22 115/279/23 96/280/11 
f 10/281/3 9/282/3 5/5/3 8/8/3 
s 8
f 9/283/24 91/284/24 6/6/24 5/5/24 
s 2
f 91/285/5 90/286/5 7/7/25 6/6/25 
s 8
f 90/287/6 10/288/6 8/8/6 7/7/6 
s 2
f 14/289/4 13/290/4 46/54/24 45/53/24 
s 4
f 13/291/5 92/292/5 47/55/25 46/54/25 
s 2
f 92/293/6 73/294/6 48/56/6 47/55/6 
s 4
f 73/295/3 14/296/3 45/53/3 48/56/3 
s 2
f 75/297/3 74/298/3 49/57/3 52/60/3 
s 4
f 74/299/24 93/300/24 50/58/24 49/57/24 
s 2
f 93/301/5 94/302/5 51/59/25 50/58/25 
s 8
f 94/303/6 75/304/6 52/60/6 51/59/6 
s 2
f 77/305/3 76/306/3 53/61/3 56/64/3 
s 8
f 76/307/24 95/308/24 54/62/24 53/61/24 
s 2
f 95/309/8 96/310/11 55/63/25 54/62/25 
s 8
f 96/311/6 77/312/6 56/64/6 55/63/6 
s 2
f 79/313/3 78/314/3 57/65/3 60/68/3 
s 8
f 78/315/24 17/316/24 58/66/24 57/65/24 
s 2
f 17/317/5 16/318/5 59/67/25 58/66/25 
s 8
f 16/319/6 79/320/6 60/68/6 59/67/6 
s 4
f 21/321/3 80/322/3 63/71/3 62/70/3 
s 2
f 80/323/24 85/324/24 64/72/24 63/71/24 
s 4
f 85/325/5 22/326/5 61/69/25 64/72/25 
s 2
f 22/327/6 21/328/6 62/70/6 61/69/6 
f 81/329/3 82/330/3 67/75/3 66/74/3 
s 8
f 82/331/24 87/332/24 68/76/24 67/75/24 
s 2
f 87/333/5 86/334/5 65/73/25 68/76/25 
s 4
f 86/335/6 81/336/6 66/74/6 65/73/6 
s 2
f 83/337/3 84/338/3 71/79/3 70/78/3 
s 8
f 84/339/24 89/340/24 72/80/24 71/79/24 
s 2
f 89/341/5 88/342/5 69/77/25 72/80/25 
s 8
f 88/343/6 83/344/6 70/78/6 69/77/6 
# 122 polygons

