# 3ds Max Wavefront OBJ Exporter v0.97b - (c)2007 guruware
# File Created: 30.07.2015 10:17:16

mtllib Door.mtl

#
# object Door
#

v  0.5300 2.0514 -0.0000
v  0.0000 2.0514 0.0000
v  0.0000 2.0514 0.0500
v  0.5300 2.0514 0.0500
v  0.9000 1.9889 -0.0000
v  0.9000 2.0514 -0.0000
v  0.9000 2.0514 0.0500
v  0.9000 1.9889 0.0500
v  0.7300 0.0014 -0.0000
v  0.9000 0.0014 -0.0000
v  0.9000 0.0014 0.0500
v  0.7300 0.0014 0.0500
v  0.0000 1.0889 0.0000
v  0.0000 0.0014 0.0000
v  0.0000 0.0014 0.0500
v  0.0000 1.0889 0.0500
v  0.9000 1.0889 -0.0000
v  0.7300 1.0889 -0.0000
v  0.9000 1.0889 0.0500
v  0.7300 1.0889 0.0500
v  0.7300 2.0514 -0.0000
v  0.7300 2.0514 0.0500
v  0.5300 0.0014 -0.0000
v  0.5300 0.0014 0.0500
v  0.5300 1.9889 -0.0000
v  0.0000 1.9889 0.0000
v  0.5300 1.0889 0.0500
v  0.7300 1.9889 -0.0000
v  0.0000 1.9889 0.0500
v  0.7300 1.9889 0.0500
v  0.5300 1.0889 -0.0000
v  0.5300 1.9889 0.0500
# 32 vertices

vn 0.0000 1.0000 0.0000
vn 1.0000 0.0000 -0.0000
vn -0.0000 -1.0000 -0.0000
vn -1.0000 0.0000 0.0000
vn -0.0000 0.0000 -1.0000
vn 0.0000 -0.0000 1.0000
vn 0.0000 0.0000 1.0000
# 7 vertex normals

vt 2.9000 2.3750 7.6250
vt 0.2500 2.3750 7.6250
vt 0.2500 2.6250 7.6250
vt 2.9000 2.6250 7.6250
vt -2.3125 2.3750 0.2500
vt -2.6250 2.3750 0.2500
vt -2.6250 2.6250 0.2500
vt -2.3125 2.6250 0.2500
vt 1.1000 2.3750 -2.6250
vt 0.2500 2.3750 -2.6250
vt 0.2500 2.6250 -2.6250
vt 1.1000 2.6250 -2.6250
vt 2.8125 2.3750 4.7500
vt -2.6250 2.3750 4.7500
vt -2.6250 2.6250 4.7500
vt 2.8125 2.6250 4.7500
vt 4.7500 2.8125 2.3750
vt 4.7500 -2.6250 2.3750
vt 3.9000 -2.6250 2.3750
vt 3.9000 2.8125 2.3750
vt 1.1000 -2.6250 2.6250
vt 0.2500 -2.6250 2.6250
vt 0.2500 2.8125 2.6250
vt 1.1000 2.8125 2.6250
vt 4.7500 2.3750 7.6250
vt 3.9000 2.3750 7.6250
vt 3.9000 2.6250 7.6250
vt 4.7500 2.6250 7.6250
vt 4.7500 2.3750 -2.6250
vt 2.1000 2.3750 -2.6250
vt 2.1000 2.6250 -2.6250
vt 4.7500 2.6250 -2.6250
vt 0.2500 7.6250 2.3750
vt 2.9000 7.6250 2.3750
vt 2.9000 7.3125 2.3750
vt 0.2500 7.3125 2.3750
vt 4.7500 -2.6250 2.6250
vt 2.1000 -2.6250 2.6250
vt 2.1000 2.8125 2.6250
vt 4.7500 2.8125 2.6250
vt 3.9000 7.6250 2.3750
vt 3.9000 7.3125 2.3750
vt 7.6250 2.3750 0.2500
vt 2.1875 2.3750 0.2500
vt 2.1875 2.6250 0.2500
vt 7.6250 2.6250 0.2500
vt 7.6250 2.3750 4.7500
vt 7.3125 2.3750 4.7500
vt 7.3125 2.6250 4.7500
vt 7.6250 2.6250 4.7500
vt 4.7500 7.6250 2.3750
vt 4.7500 7.3125 2.3750
vt 1.1000 7.6250 2.6250
vt 1.1000 7.3125 2.6250
vt 0.2500 7.3125 2.6250
vt 0.2500 7.6250 2.6250
vt 0.2500 -2.6250 2.3750
vt 0.2500 2.8125 2.3750
vt 2.9000 2.8125 2.3750
vt 2.9000 -2.6250 2.3750
vt 4.7500 7.6250 2.6250
vt 4.7500 7.3125 2.6250
vt 2.1000 7.3125 2.6250
vt 2.1000 7.6250 2.6250
# 64 texture coords

g Door
usemtl Material__16
s 1
f 1/1/1 2/2/1 3/3/1 4/4/1 
s 4
f 5/5/2 6/6/2 7/7/2 8/8/2 
s 2
f 9/9/3 10/10/3 11/11/3 12/12/3 
s 4
f 13/13/4 14/14/4 15/15/4 16/16/4 
s 16
f 17/17/5 10/18/5 9/19/5 18/20/5 
f 12/21/6 11/22/6 19/23/6 20/24/6 
s 1
f 6/25/1 21/26/1 22/27/1 7/28/1 
s 2
f 14/29/3 23/30/3 24/31/3 15/32/3 
s 16
f 2/33/5 1/34/5 25/35/5 26/36/5 
f 15/37/6 24/38/6 27/39/6 16/40/6 
s 1
f 1/1/1 4/4/1 22/27/1 21/26/1 
s 2
f 9/9/3 12/12/3 24/31/3 23/30/3 
s 16
f 1/34/5 21/41/5 28/42/5 25/35/5 
f 24/38/6 12/21/6 20/24/6 27/39/6 
s 4
f 10/43/2 17/44/2 19/45/2 11/46/2 
f 2/47/4 26/48/4 29/49/4 3/50/4 
s 16
f 6/51/5 5/52/5 28/42/5 21/41/5 
f 22/53/7 30/54/6 8/55/6 7/56/7 
f 14/57/5 13/58/5 31/59/5 23/60/5 
f 3/61/7 29/62/6 32/63/6 4/64/7 
f 23/60/5 31/59/5 18/20/5 9/19/5 
f 4/64/7 32/63/6 30/54/6 22/53/7 
s 4
f 5/5/2 8/8/2 19/45/2 17/44/2 
f 13/13/4 16/16/4 29/49/4 26/48/4 
s 16
f 17/17/5 18/20/5 28/42/5 5/52/5 
f 20/24/6 19/23/6 8/55/6 30/54/6 
f 26/36/5 25/35/5 31/59/5 13/58/5 
f 16/40/6 27/39/6 32/63/6 29/62/6 
# 28 polygons

