# 3ds Max Wavefront OBJ Exporter v0.97b - (c)2007 guruware
# File Created: 07.09.2015 12:13:57

mtllib KoridorKapiDuvarUst.mtl

#
# object KoridorKapiDuvarUst
#

v  -200.0000 2.3756 5.0000
v  -93.0000 2.3756 5.0000
v  -93.0000 93.8756 5.0000
v  -200.0000 93.8756 5.0000
v  -93.0000 93.8756 -5.0000
v  -93.0000 2.3756 -5.0000
v  -200.0000 2.3756 -5.0000
v  -200.0000 93.8756 -5.0000
v  200.0000 2.3756 5.0000
v  200.0000 2.3756 -5.0000
v  200.0000 93.8756 -5.0000
v  200.0000 93.8756 5.0000
v  92.0573 2.3756 -5.0000
v  92.0573 93.8756 -5.0000
v  92.0573 93.8756 5.0000
v  -200.0000 -93.8756 5.0000
v  -93.0000 -93.8756 5.0000
v  -93.0000 -93.8756 -5.0000
v  -200.0000 -93.8756 -5.0000
v  200.0000 -93.8756 5.0000
v  200.0000 -93.8756 -5.0000
v  92.0573 2.3756 5.0000
v  92.0573 -93.8756 -5.0000
v  92.0573 -93.8756 5.0000
# 24 vertices

vn 0.0000 -0.0000 1.0000
vn 0.0000 0.0000 -1.0000
vn 0.0000 1.0000 0.0000
vn 1.0000 0.0000 -0.0000
vn -1.0000 0.0000 -0.0000
vn 0.0000 -1.0000 -0.0000
# 6 vertex normals

vt 7.7100 -2.4250 2.7585
vt 2.3600 -2.4250 2.7585
vt 2.3600 -7.0000 2.7585
vt 7.7100 -7.0000 2.7585
vt -1.3600 -7.0000 3.2585
vt -1.3600 -2.4250 3.2585
vt -6.7100 -2.4250 3.2585
vt -6.7100 -7.0000 3.2585
vt -1.3600 2.7585 -7.0000
vt -1.3600 3.2585 -7.0000
vt -6.7100 3.2585 -7.0000
vt -6.7100 2.7585 -7.0000
vt -2.4250 2.7585 13.2900
vt -2.4250 3.2585 13.2900
vt -7.0000 3.2585 13.2900
vt -7.0000 2.7585 13.2900
vt 13.2900 -7.0000 3.2585
vt 13.2900 -2.4250 3.2585
vt 7.8928 -2.4250 3.2585
vt 7.8928 -7.0000 3.2585
vt 13.2900 2.7585 -7.0000
vt 13.2900 3.2585 -7.0000
vt 7.8928 3.2585 -7.0000
vt 7.8928 2.7585 -7.0000
vt 7.7100 2.3876 2.7585
vt 2.3600 2.3876 2.7585
vt -1.3600 2.3876 3.2585
vt -6.7100 2.3876 3.2585
vt 2.3876 2.7585 13.2900
vt 2.3876 3.2585 13.2900
vt 8.0000 2.7585 -6.7100
vt 8.0000 3.2585 -6.7100
vt 3.4250 3.2585 -6.7100
vt 3.4250 2.7585 -6.7100
vt -12.2900 -7.0000 2.7585
vt -6.8928 -7.0000 2.7585
vt -6.8928 -2.4250 2.7585
vt -12.2900 -2.4250 2.7585
vt 13.2900 2.3876 3.2585
vt 7.8928 2.3876 3.2585
vt -1.3876 3.2585 -6.7100
vt -1.3876 2.7585 -6.7100
vt -6.8928 2.3876 2.7585
vt -12.2900 2.3876 2.7585
vt 2.3876 2.7585 -1.3600
vt 2.3876 3.2585 -1.3600
vt -2.4250 3.2585 -1.3600
vt -2.4250 2.7585 -1.3600
vt -6.8928 3.2585 -2.4250
vt -6.8928 2.7585 -2.4250
vt 2.3600 2.7585 -2.4250
vt 2.3600 3.2585 -2.4250
vt -1.3876 3.2585 7.8928
vt -1.3876 2.7585 7.8928
vt 3.4250 2.7585 7.8928
vt 3.4250 3.2585 7.8928
# 56 texture coords

g KoridorKapiDuvarUst
usemtl Wall
s 1
f 1/1/1 2/2/1 3/3/1 4/4/1 
f 5/5/2 6/6/2 7/7/2 8/8/2 
s 2
f 3/9/3 5/10/3 8/11/3 4/12/3 
s 4
f 9/13/4 10/14/4 11/15/4 12/16/4 
s 1
f 11/17/2 10/18/2 13/19/2 14/20/2 
s 2
f 12/21/3 11/22/3 14/23/3 15/24/3 
s 1
f 14/20/2 13/19/2 6/6/2 5/5/2 
s 2
f 3/9/3 15/24/3 14/23/3 5/10/3 
s 1
f 16/25/1 17/26/1 2/2/1 1/1/1 
f 18/27/2 19/28/2 7/7/2 6/6/2 
s 4
f 20/29/4 21/30/4 10/14/4 9/13/4 
f 4/31/5 8/32/5 7/33/5 1/34/5 
s 1
f 12/35/1 15/36/1 22/37/1 9/38/1 
f 21/39/2 23/40/2 13/19/2 10/18/2 
f 15/36/1 3/3/1 2/2/1 22/37/1 
s 4
f 1/34/5 7/33/5 19/41/5 16/42/5 
s 1
f 9/38/1 22/37/1 24/43/1 20/44/1 
s 2
f 17/45/4 18/46/4 6/47/4 2/48/4 
s 4
f 13/49/6 22/50/6 2/51/6 6/52/6 
s 2
f 23/53/5 24/54/5 22/55/5 13/56/5 
s 8
f 18/27/6 17/45/6 16/25/6 19/41/6 
f 23/53/6 21/39/6 20/29/6 24/43/6 
# 22 polygons

