# 3ds Max Wavefront OBJ Exporter v0.97b - (c)2007 guruware
# File Created: 30.07.2015 15:33:34

mtllib Projection_Platform.mtl

#
# object Projection_Platform
#

v  -0.1423 -0.4001 -0.0000
v  -0.0270 -0.4001 -0.0000
v  -0.0270 -0.4068 -0.0000
v  -0.1423 -0.4068 -0.0000
v  -0.0270 -0.4068 0.3000
v  -0.0270 -0.4001 0.3000
v  -0.1423 -0.4001 0.3000
v  -0.1423 -0.4068 0.3000
v  0.1423 -0.4068 -0.0000
v  0.1423 -0.4001 -0.0000
v  0.1423 -0.4001 0.3000
v  0.1423 -0.4068 0.3000
v  0.0270 -0.4001 -0.0000
v  0.0270 -0.4001 0.3000
v  0.0270 -0.4068 -0.0000
v  0.0270 -0.4068 0.3000
v  -0.0270 -0.4001 -0.1224
v  0.0270 -0.4001 -0.1224
v  0.0270 -0.4068 -0.1224
v  -0.0270 -0.4068 -0.1224
v  -0.0270 -0.4001 -0.0612
v  -0.0270 -0.4068 -0.0612
v  0.0270 -0.4001 -0.0612
v  0.0270 -0.4068 -0.0612
v  0.0270 -0.0001 -0.1224
v  -0.0270 -0.0001 -0.1224
v  -0.0270 -0.0001 -0.0612
v  0.0270 -0.0001 -0.0612
v  -0.0270 -0.0081 -0.1224
v  0.0270 -0.0081 -0.1224
v  -0.0270 -0.0081 -0.0612
v  0.0270 -0.0081 -0.0612
v  -0.1684 -0.0001 -0.2638
v  0.1684 -0.0001 -0.2638
v  0.1684 -0.0081 -0.2638
v  -0.1684 -0.0081 -0.2638
v  -0.1684 -0.0001 0.0802
v  -0.1684 -0.0081 0.0802
v  0.1684 -0.0001 0.0802
v  0.1684 -0.0081 0.0802
# 40 vertices

vn 0.0000 0.0000 -1.0000
vn 0.0000 0.0000 1.0000
vn 0.0000 -1.0000 -0.0000
vn 1.0000 0.0000 -0.0000
vn 0.0000 1.0000 0.0000
vn -1.0000 0.0000 -0.0000
vn 0.0000 1.0000 -0.0000
vn 0.0000 -0.0000 1.0000
vn -0.0000 1.0000 0.0000
vn -0.0000 -1.0000 -0.0000
# 10 vertex normals

vt 1.0000 1.0000 0.0000
vt 0.5947 1.0000 0.0000
vt 0.5947 0.0000 0.0000
vt 1.0000 0.0000 0.0000
vt 0.4053 0.0000 0.0000
vt 0.4053 1.0000 0.0000
vt 0.0000 1.0000 0.0000
vt 0.0000 0.0000 0.0000
vt 0.4053 0.5000 0.0000
vt 0.5947 0.5000 0.0000
vt 0.5000 0.0000 0.0000
vt 0.5947 0.5100 0.0000
vt 0.4053 0.5100 0.0000
# 13 texture coords

g Projection_Platform
usemtl wire_113135006
s 2
f 1/1/1 2/2/1 3/3/1 4/4/1 
s 4
f 5/5/2 6/6/2 7/7/2 8/8/2 
s 8
f 3/5/3 5/6/3 8/7/3 4/8/3 
s 16
f 9/8/4 10/4/4 11/1/4 12/7/4 
s 32
f 13/5/5 14/6/5 11/7/5 10/8/5 
s 64
f 1/8/6 4/4/6 8/1/6 7/7/6 
s 2
f 10/7/1 9/8/1 15/5/1 13/6/1 
s 4
f 12/4/2 11/1/2 14/2/2 16/3/2 
s 8
f 9/4/3 12/1/3 16/2/3 15/3/3 
s 32
f 1/4/5 7/1/5 6/2/5 2/3/5 
s 2
f 17/2/1 18/6/1 19/5/1 20/3/1 
s 4
f 5/5/2 16/3/2 14/2/2 6/6/2 
s 8
f 3/5/3 15/3/3 16/2/3 5/6/3 
s 32
f 13/5/5 2/3/5 6/2/5 14/6/5 
s off
f 2/2/6 21/2/6 22/3/6 3/3/6 
f 13/5/7 23/9/7 21/10/7 2/3/7 
f 15/5/4 24/5/4 23/6/4 13/6/4 
f 3/5/3 22/11/3 24/11/3 15/3/3 
f 17/2/6 20/3/6 22/3/6 21/2/6 
f 25/6/5 26/2/5 27/10/5 28/9/5 
f 19/5/4 18/6/4 23/6/4 24/5/4 
f 20/3/3 19/5/3 24/11/3 22/11/3 
f 17/2/1 29/2/1 30/6/1 18/6/1 
f 21/2/6 31/12/6 29/2/6 17/2/6 
f 23/9/8 32/9/8 31/10/8 21/10/8 
f 18/6/4 30/6/4 32/13/4 23/6/4 
f 33/2/1 34/6/1 35/6/1 36/2/1 
f 37/10/6 33/2/6 36/2/6 38/12/6 
f 39/9/2 37/10/2 38/10/2 40/9/2 
f 34/6/4 39/9/4 40/13/4 35/6/4 
f 26/2/7 25/6/7 34/6/7 33/2/7 
f 25/6/5 28/9/5 39/9/5 34/6/5 
f 28/9/7 27/10/7 37/10/7 39/9/7 
f 27/10/9 26/2/9 33/2/9 37/10/9 
f 30/6/3 29/2/3 36/2/3 35/6/3 
f 29/2/3 31/12/3 38/12/3 36/2/3 
f 31/10/3 32/9/3 40/9/3 38/10/3 
f 32/13/10 30/6/10 35/6/10 40/13/10 
# 38 polygons

