# 3ds Max Wavefront OBJ Exporter v0.97b - (c)2007 guruware
# File Created: 30.07.2015 11:41:07

mtllib Smart_Board_Screen_01.mtl

#
# object Smart_Board_Screen_01
#

v  -1.6476 0.4573 -0.0000
v  0.0005 0.4573 -0.0000
v  0.0005 -0.4573 -0.0000
v  -1.6476 -0.4573 -0.0000
# 4 vertices

vn 0.0000 0.0000 -1.0000
# 1 vertex normals

vt 0.4953 0.9833 0.0000
vt 0.0104 0.9833 0.0000
vt 0.0104 0.5501 0.0000
vt 0.4953 0.5501 0.0000
# 4 texture coords

g Smart_Board_Screen_01
usemtl _Ekran1_ekranakilli_siyah_sinif_
s 1
f 1/1/1 2/2/1 3/3/1 4/4/1 
# 1 polygons

