# 3ds Max Wavefront OBJ Exporter v0.97b - (c)2007 guruware
# File Created: 14.08.2015 10:08:45

mtllib Student_Desk.mtl

#
# object Student_Desk
#

v  -0.3001 0.6431 0.1472
v  -0.3001 0.6329 0.1472
v  0.3001 0.6329 0.1472
v  0.3001 0.6431 0.1472
v  0.3455 0.6431 0.1011
v  0.3455 0.6329 0.1011
v  0.3455 0.6329 -0.1762
v  0.3455 0.6431 -0.1762
v  0.3001 0.6431 -0.2225
v  0.3001 0.6329 -0.2225
v  -0.3001 0.6329 -0.2225
v  -0.3001 0.6431 -0.2225
v  -0.3455 0.6329 0.1011
v  -0.3455 0.6431 0.1011
v  -0.3455 0.6431 -0.1762
v  -0.3455 0.6329 -0.1762
v  -0.3169 0.6289 0.0974
v  -0.3169 0.6289 -0.1726
v  -0.2972 0.6289 -0.1726
v  -0.2972 0.6289 0.0974
v  0.2972 0.6469 0.0974
v  0.2972 0.6469 -0.1726
v  -0.2972 0.6469 -0.1726
v  -0.2972 0.6469 0.0974
v  0.3223 0.6056 0.1005
v  0.3223 0.6056 -0.1616
v  0.3223 0.6308 -0.1616
v  0.3223 0.6308 0.1019
v  0.3043 0.6308 -0.1616
v  0.3043 0.6056 -0.1616
v  0.3043 0.6056 0.1005
v  0.3043 0.6308 0.1019
v  0.3223 0.6044 0.1067
v  0.3223 0.6277 0.1169
v  0.3043 0.6044 0.1067
v  0.3043 0.6277 0.1169
v  0.3223 0.6187 0.1297
v  0.3223 0.6012 0.1112
v  0.3043 0.6012 0.1112
v  0.3043 0.6187 0.1297
v  0.3223 0.6053 0.1380
v  0.3223 0.5965 0.1141
v  0.3043 0.5965 0.1141
v  0.3043 0.6053 0.1380
v  0.3223 0.5980 0.1398
v  0.3223 0.5931 0.1150
v  0.3043 0.5980 0.1398
v  0.3043 0.5931 0.1150
v  0.3223 0.0679 0.2182
v  0.3223 0.0658 0.1930
v  0.3223 0.0518 0.1916
v  0.3223 0.0430 0.2155
v  0.3043 0.0679 0.2182
v  0.3043 0.0658 0.1930
v  0.3043 0.0518 0.1916
v  0.3043 0.0430 0.2155
v  0.3223 0.0225 0.2017
v  0.3223 0.0413 0.1845
v  0.3043 0.0413 0.1845
v  0.3043 0.0225 0.2017
v  0.3223 0.0105 0.1796
v  0.3223 0.0352 0.1732
v  0.3043 0.0352 0.1732
v  0.3043 0.0105 0.1796
v  0.3223 0.0090 0.1673
v  0.3223 0.0342 0.1657
v  0.3043 0.0090 0.1673
v  0.3043 0.0342 0.1657
v  0.3223 0.0090 -0.1715
v  0.3223 0.0342 -0.1715
v  0.3043 0.0342 -0.1715
v  0.3043 0.0090 -0.1715
v  0.3209 0.6349 -0.1656
v  0.3209 0.6349 0.1021
v  0.3209 0.6016 0.1003
v  0.3209 0.6016 -0.1656
v  0.3209 0.6313 0.1185
v  0.3209 0.6007 0.1051
v  0.3209 0.6215 0.1326
v  0.3209 0.5984 0.1083
v  0.3209 0.6067 0.1417
v  0.3209 0.5952 0.1103
v  0.3209 0.5989 0.1437
v  0.3209 0.5923 0.1111
v  0.3209 0.0682 0.2222
v  0.3209 0.0654 0.1889
v  0.3209 0.0417 0.2193
v  0.3209 0.0532 0.1878
v  0.3209 0.0195 0.2044
v  0.3209 0.0443 0.1818
v  0.3209 0.0066 0.1806
v  0.3209 0.0391 0.1723
v  0.3209 0.0049 0.1676
v  0.3209 0.0382 0.1654
v  0.3209 0.0049 -0.1756
v  0.3209 0.0382 -0.1756
v  0.3056 0.6016 0.1003
v  0.3056 0.6016 -0.1656
v  0.3056 0.6007 0.1051
v  0.3056 0.5984 0.1083
v  0.3056 0.5952 0.1103
v  0.3056 0.5923 0.1111
v  0.3056 0.5989 0.1437
v  0.3056 0.0682 0.2222
v  0.3056 0.0654 0.1889
v  0.3056 0.0532 0.1878
v  0.3056 0.0443 0.1818
v  0.3056 0.0391 0.1723
v  0.3056 0.0382 0.1654
v  0.3056 0.0382 -0.1756
v  0.3056 0.6349 0.1021
v  0.3056 0.6349 -0.1656
v  0.3056 0.6313 0.1185
v  0.3056 0.6215 0.1326
v  0.3056 0.6067 0.1417
v  0.3056 0.0417 0.2193
v  0.3056 0.0195 0.2044
v  0.3056 0.0066 0.1806
v  0.3056 0.0049 0.1676
v  0.3056 0.0049 -0.1756
v  0.3018 0.5319 0.1549
v  0.3018 0.5306 0.1460
v  -0.3042 0.5306 0.1460
v  -0.3042 0.5319 0.1549
v  0.3021 0.1845 0.2065
v  0.3021 0.1831 0.1975
v  -0.3042 0.1854 0.2065
v  -0.3042 0.1840 0.1975
v  -0.3241 0.6056 0.1005
v  -0.3241 0.6308 0.1019
v  -0.3241 0.6308 -0.1616
v  -0.3241 0.6056 -0.1616
v  -0.3061 0.6308 -0.1616
v  -0.3061 0.6308 0.1019
v  -0.3061 0.6056 0.1005
v  -0.3061 0.6056 -0.1616
v  -0.3241 0.6044 0.1067
v  -0.3241 0.6277 0.1169
v  -0.3061 0.6277 0.1169
v  -0.3061 0.6044 0.1067
v  -0.3241 0.6012 0.1112
v  -0.3241 0.6187 0.1297
v  -0.3061 0.6187 0.1297
v  -0.3061 0.6012 0.1112
v  -0.3241 0.5965 0.1141
v  -0.3241 0.6053 0.1380
v  -0.3061 0.6053 0.1380
v  -0.3061 0.5965 0.1141
v  -0.3241 0.5931 0.1150
v  -0.3241 0.5980 0.1398
v  -0.3061 0.5980 0.1398
v  -0.3061 0.5931 0.1150
v  -0.3241 0.0581 0.1930
v  -0.3241 0.0554 0.2184
v  -0.3241 0.0679 0.2182
v  -0.3241 0.0658 0.1930
v  -0.3061 0.0679 0.2182
v  -0.3061 0.0554 0.2184
v  -0.3061 0.0581 0.1930
v  -0.3061 0.0658 0.1930
v  -0.3241 0.0462 0.1886
v  -0.3241 0.0319 0.2098
v  -0.3061 0.0319 0.2098
v  -0.3061 0.0462 0.1886
v  -0.3241 0.0375 0.1793
v  -0.3241 0.0152 0.1915
v  -0.3061 0.0152 0.1915
v  -0.3061 0.0375 0.1793
v  -0.3241 0.0342 0.1657
v  -0.3241 0.0090 0.1673
v  -0.3061 0.0090 0.1673
v  -0.3061 0.0342 0.1657
v  -0.3241 0.0090 -0.1715
v  -0.3241 0.0342 -0.1715
v  -0.3061 0.0342 -0.1715
v  -0.3061 0.0090 -0.1715
v  -0.3227 0.6349 0.1021
v  -0.3227 0.6349 -0.1656
v  -0.3227 0.6016 -0.1656
v  -0.3227 0.6016 0.1003
v  -0.3227 0.6313 0.1185
v  -0.3227 0.6007 0.1051
v  -0.3227 0.6215 0.1326
v  -0.3227 0.5984 0.1083
v  -0.3227 0.6067 0.1417
v  -0.3227 0.5952 0.1103
v  -0.3227 0.5989 0.1437
v  -0.3227 0.5923 0.1111
v  -0.3227 0.0682 0.2222
v  -0.3227 0.0654 0.1889
v  -0.3227 0.0551 0.2225
v  -0.3227 0.0586 0.1891
v  -0.3227 0.0296 0.2131
v  -0.3227 0.0484 0.1853
v  -0.3227 0.0116 0.1934
v  -0.3227 0.0411 0.1774
v  -0.3227 0.0049 0.1676
v  -0.3227 0.0382 0.1654
v  -0.3227 0.0049 -0.1756
v  -0.3227 0.0382 -0.1756
v  -0.3074 0.6016 -0.1656
v  -0.3074 0.6016 0.1003
v  -0.3074 0.6007 0.1051
v  -0.3074 0.5984 0.1083
v  -0.3074 0.5952 0.1103
v  -0.3074 0.5923 0.1111
v  -0.3074 0.0654 0.1889
v  -0.3074 0.0586 0.1891
v  -0.3074 0.0484 0.1853
v  -0.3074 0.0411 0.1774
v  -0.3074 0.0382 0.1654
v  -0.3074 0.0382 -0.1756
v  -0.3074 0.6349 -0.1656
v  -0.3074 0.6349 0.1021
v  -0.3074 0.6313 0.1185
v  -0.3074 0.6215 0.1326
v  -0.3074 0.6067 0.1417
v  -0.3074 0.5989 0.1437
v  -0.3074 0.0682 0.2222
v  -0.3074 0.0551 0.2225
v  -0.3074 0.0296 0.2131
v  -0.3074 0.0116 0.1934
v  -0.3074 0.0049 0.1676
v  -0.3074 0.0049 -0.1756
v  -0.2879 0.5960 0.1355
v  -0.2879 0.5960 -0.1339
v  -0.2806 0.6289 -0.1339
v  -0.2806 0.6289 0.1355
v  -0.3059 0.5960 -0.1339
v  -0.3059 0.5960 0.1355
v  -0.3058 0.6289 -0.1339
v  -0.3058 0.6289 0.1355
v  0.3039 0.6290 0.1356
v  0.2788 0.6289 0.1355
v  0.2862 0.5960 0.1355
v  0.3040 0.5959 0.1356
v  0.3041 0.6289 0.1355
v  0.3042 0.5960 0.1355
v  0.3042 0.5960 -0.1339
v  0.3041 0.6289 -0.1339
v  0.2862 0.5960 -0.1339
v  0.3040 0.5959 -0.1341
v  0.3039 0.6290 -0.1341
v  0.2788 0.6289 -0.1339
v  -0.3061 0.4858 0.1500
v  -0.3061 0.4609 0.1537
v  0.3043 0.4639 0.1533
v  0.3043 0.4888 0.1496
v  -0.3061 0.4587 0.1413
v  -0.3061 0.4837 0.1376
v  0.3043 0.4868 0.1372
v  0.3043 0.4619 0.1408
v  -0.3061 0.4879 0.1383
v  0.3043 0.4910 0.1379
v  0.3043 0.4615 0.1533
v  -0.3061 0.4585 0.1537
v  -0.3061 0.4903 0.1462
v  0.3043 0.4934 0.1458
v  -0.3061 0.4881 0.1493
v  0.3043 0.4911 0.1489
v  -0.3061 0.4553 0.1515
v  0.3043 0.4584 0.1510
v  -0.3061 0.4550 0.1432
v  0.3043 0.4581 0.1427
v  0.3043 0.2414 0.1734
v  0.3043 0.2164 0.1771
v  -0.3061 0.2122 0.1778
v  -0.3061 0.2371 0.1741
v  0.3043 0.2180 0.1895
v  0.3043 0.2429 0.1858
v  -0.3061 0.2387 0.1865
v  -0.3061 0.2137 0.1902
v  -0.3061 0.2409 0.1858
v  0.3043 0.2452 0.1852
v  0.3043 0.2126 0.1790
v  -0.3061 0.2083 0.1796
v  0.3043 0.2475 0.1822
v  -0.3061 0.2433 0.1828
v  0.3043 0.2455 0.1741
v  -0.3061 0.2413 0.1748
v  0.3043 0.2126 0.1873
v  -0.3061 0.2083 0.1879
v  0.3043 0.2155 0.1895
v  -0.3061 0.2113 0.1902
v  -0.3426 0.6431 0.1212
v  -0.3426 0.6329 0.1212
v  -0.3426 0.6329 -0.1965
v  -0.3426 0.6431 -0.1965
v  0.3200 0.6431 0.1444
v  0.3200 0.6329 0.1444
v  0.3426 0.6431 -0.1965
v  0.3426 0.6329 -0.1965
v  -0.3341 0.6431 0.1357
v  -0.3341 0.6329 0.1357
v  -0.3200 0.6431 0.1444
v  -0.3200 0.6329 0.1444
v  -0.3341 0.6329 -0.2109
v  -0.3341 0.6431 -0.2109
v  -0.3200 0.6329 -0.2196
v  -0.3200 0.6431 -0.2196
v  0.3341 0.6431 0.1357
v  0.3341 0.6329 0.1357
v  0.3426 0.6431 0.1212
v  0.3426 0.6329 0.1212
v  0.3341 0.6431 -0.2109
v  0.3341 0.6329 -0.2109
v  0.3200 0.6431 -0.2196
v  0.3200 0.6329 -0.2196
v  -0.2972 0.6469 0.1424
v  0.2972 0.6469 0.1424
v  0.2972 0.6289 0.1424
v  -0.2972 0.6289 0.1424
v  0.3422 0.6469 0.0974
v  0.3422 0.6469 -0.1726
v  0.3422 0.6289 -0.1726
v  0.3422 0.6289 0.0974
v  0.2972 0.6469 -0.2176
v  -0.2972 0.6469 -0.2176
v  -0.2972 0.6289 -0.2176
v  0.2972 0.6289 -0.2176
v  -0.3422 0.6289 0.0974
v  -0.3422 0.6289 -0.1726
v  -0.3422 0.6469 -0.1726
v  -0.3422 0.6469 0.0974
v  -0.3394 0.6469 0.1171
v  -0.3394 0.6289 0.1171
v  -0.3394 0.6289 -0.1923
v  -0.3394 0.6469 -0.1923
v  0.3169 0.6469 0.1396
v  0.3169 0.6289 0.1396
v  0.3394 0.6469 -0.1923
v  0.3394 0.6289 -0.1923
v  -0.3309 0.6469 0.1311
v  -0.3309 0.6289 0.1311
v  -0.3169 0.6469 0.1396
v  -0.3169 0.6289 0.1396
v  -0.3309 0.6289 -0.2064
v  -0.3309 0.6469 -0.2064
v  -0.3169 0.6289 -0.2148
v  -0.3169 0.6469 -0.2148
v  0.3309 0.6469 0.1311
v  0.3309 0.6289 0.1311
v  0.3394 0.6469 0.1171
v  0.3394 0.6289 0.1171
v  0.3309 0.6469 -0.2064
v  0.3309 0.6289 -0.2064
v  0.3169 0.6469 -0.2148
v  0.3169 0.6289 -0.2148
v  -0.3169 0.6469 -0.1726
v  -0.3169 0.6469 0.0974
v  0.3309 0.6469 0.0974
v  0.3309 0.6469 -0.1726
v  -0.3309 0.6469 -0.1726
v  -0.3309 0.6469 0.0974
v  0.3169 0.6469 -0.1726
v  0.3169 0.6469 0.0974
v  0.3169 0.6289 0.0974
v  0.3169 0.6289 -0.1726
v  0.3309 0.6289 -0.1726
v  0.3309 0.6289 0.0974
v  0.2972 0.6289 0.0974
v  0.2972 0.6289 -0.1726
v  -0.3309 0.6289 0.0974
v  -0.3309 0.6289 -0.1726
# 364 vertices

vn -0.0700 0.4334 0.8985
vn -0.0704 -0.4337 0.8983
vn 0.0700 -0.4334 0.8985
vn 0.0704 0.4337 0.8983
vn 0.9295 0.3610 0.0749
vn 0.9298 -0.3605 0.0744
vn 0.9295 -0.3610 -0.0749
vn 0.9298 0.3605 -0.0744
vn 0.0700 0.4334 -0.8985
vn 0.0704 -0.4337 -0.8983
vn -0.0700 -0.4334 -0.8985
vn -0.0704 0.4337 -0.8983
vn -0.9295 -0.3610 0.0749
vn -0.9298 0.3605 0.0744
vn -0.9295 0.3610 -0.0749
vn -0.9298 -0.3605 -0.0744
vn 0.0000 -1.0000 -0.0000
vn 0.0000 1.0000 -0.0000
vn 0.9886 -0.1498 -0.0145
vn 0.9852 -0.1211 -0.1212
vn 0.9852 0.1212 -0.1212
vn 0.9853 0.1698 0.0184
vn -0.9852 0.1211 -0.1212
vn -0.9852 -0.1212 -0.1212
vn -0.9886 -0.1502 -0.0141
vn -0.9853 0.1698 0.0184
vn 0.9903 -0.1279 -0.0546
vn 0.9837 0.1650 0.0720
vn -0.9902 -0.1281 -0.0550
vn -0.9837 0.1650 0.0720
vn 0.9837 0.1237 0.1307
vn 0.9901 -0.0964 -0.1018
vn -0.9901 -0.0964 -0.1018
vn -0.9837 0.1237 0.1307
vn 0.9845 0.0698 0.1612
vn 0.9894 -0.0570 -0.1337
vn -0.9894 -0.0568 -0.1336
vn -0.9844 0.0697 0.1613
vn 0.9863 0.0323 0.1620
vn 0.9879 -0.0309 -0.1517
vn -0.9862 0.0325 0.1621
vn -0.9880 -0.0310 -0.1516
vn 0.9849 0.0026 0.1730
vn 0.9889 -0.0043 -0.1482
vn 0.9908 0.0456 -0.1272
vn 0.9829 -0.0631 0.1729
vn -0.9849 0.0026 0.1730
vn -0.9889 -0.0045 -0.1484
vn -0.9908 0.0459 -0.1273
vn -0.9829 -0.0631 0.1729
vn 0.9830 -0.1360 0.1236
vn 0.9907 0.1007 -0.0916
vn -0.9907 0.1007 -0.0917
vn -0.9830 -0.1360 0.1236
vn 0.9839 -0.1699 0.0562
vn 0.9899 0.1353 -0.0431
vn -0.9899 0.1352 -0.0429
vn -0.9838 -0.1700 0.0561
vn 0.9861 -0.1660 0.0102
vn 0.9881 0.1535 -0.0099
vn -0.9861 -0.1661 0.0104
vn -0.9881 0.1534 -0.0100
vn 0.9852 0.1212 -0.1211
vn -0.9852 0.1212 -0.1212
vn 0.9733 0.1622 -0.1622
vn 0.9485 0.3151 0.0321
vn 0.9483 -0.3158 -0.0317
vn 0.9733 -0.1622 -0.1622
vn 0.9487 0.2898 0.1265
vn 0.9487 -0.2915 -0.1226
vn 0.9487 0.2174 0.2296
vn 0.9487 -0.2174 -0.2297
vn 0.9486 0.1231 0.2916
vn 0.9486 -0.1266 -0.2900
vn 0.9486 0.0621 0.3103
vn 0.9487 -0.0627 -0.3100
vn 0.9485 0.0078 0.3168
vn 0.9483 -0.0065 -0.3172
vn 0.9487 -0.1085 0.2970
vn 0.9487 0.1056 -0.2981
vn 0.9487 -0.2339 0.2128
vn 0.9487 0.2341 -0.2127
vn 0.9485 -0.3020 0.0953
vn 0.9485 0.3004 -0.1002
vn 0.9486 -0.3158 0.0196
vn 0.9487 0.3156 -0.0201
vn 0.0000 -0.9956 -0.0936
vn 0.0000 -0.9211 -0.3893
vn 0.0000 -0.6876 -0.7261
vn 0.0000 -0.3941 -0.9191
vn 0.0000 -0.1982 -0.9802
vn 0.0000 0.1970 0.9804
vn 0.0000 0.0196 0.9998
vn 0.0000 -0.0275 -0.9996
vn 0.0000 0.3357 -0.9420
vn 0.0000 0.7398 -0.6728
vn 0.0000 0.9515 -0.3076
vn 0.0000 0.9980 -0.0635
vn -0.9485 0.3151 0.0321
vn -0.9733 0.1622 -0.1622
vn -0.9733 -0.1622 -0.1622
vn -0.9487 0.2898 0.1265
vn -0.9487 0.2174 0.2296
vn -0.9486 0.1229 0.2915
vn -0.9487 0.0623 0.3100
vn -0.9485 0.0078 0.3168
vn -0.9487 -0.1085 0.2970
vn -0.9487 -0.2339 0.2128
vn -0.9486 -0.3018 0.0951
vn -0.9487 -0.3156 0.0198
vn -0.9486 -0.3150 -0.0305
vn 0.0000 0.9944 0.1053
vn 0.0000 0.0000 -1.0000
vn -0.9490 -0.2902 -0.1234
vn 0.0000 0.9165 0.4001
vn -0.9487 -0.2174 -0.2296
vn 0.0000 0.6875 0.7262
vn -0.9485 -0.1263 -0.2904
vn 0.0000 0.3928 0.9196
vn -0.9486 -0.0630 -0.3102
vn -0.9485 -0.0073 -0.3167
vn -0.9488 0.1063 -0.2974
vn 0.0000 -0.3430 0.9393
vn -0.9487 0.2340 -0.2127
vn 0.0000 -0.7398 0.6728
vn -0.9485 0.3007 -0.0999
vn 0.0000 -0.9519 0.3065
vn -0.9486 0.3158 -0.0205
vn 0.0000 -0.9980 0.0626
vn 0.0000 0.9893 -0.1461
vn 1.0000 0.0008 -0.0001
vn -0.0015 -0.9893 0.1461
vn -1.0000 0.0002 -0.0000
vn 0.0000 0.1473 0.9891
vn 0.0001 0.1472 0.9891
vn 0.0002 0.1470 0.9891
vn 0.0001 0.1471 0.9891
vn -0.0002 -0.1473 -0.9891
vn -0.0001 -0.1472 -0.9891
vn 0.0000 -0.1470 -0.9891
vn -0.0001 -0.1471 -0.9891
vn -0.9886 -0.1498 -0.0145
vn -0.9853 0.1699 0.0186
vn -0.9852 0.1211 -0.1211
vn -0.9852 -0.1211 -0.1212
vn 0.9852 0.1211 -0.1212
vn 0.9886 -0.1502 -0.0141
vn 0.9852 -0.1212 -0.1212
vn -0.9903 -0.1279 -0.0546
vn -0.9837 0.1651 0.0719
vn 0.9837 0.1649 0.0720
vn 0.9902 -0.1282 -0.0550
vn -0.9894 -0.0570 -0.1337
vn -0.9845 0.0698 0.1612
vn 0.9844 0.0697 0.1613
vn 0.9894 -0.0568 -0.1336
vn -0.9879 -0.0309 -0.1517
vn -0.9863 0.0323 0.1620
vn 0.9862 0.0325 0.1621
vn 0.9880 -0.0310 -0.1516
vn -0.9899 0.0227 -0.1401
vn -0.9838 -0.0306 0.1764
vn -0.9861 0.0140 0.1658
vn -0.9881 -0.0125 -0.1532
vn 0.9861 0.0141 0.1657
vn 0.9839 -0.0308 0.1763
vn 0.9899 0.0228 -0.1402
vn 0.9881 -0.0127 -0.1533
vn -0.9907 0.0759 -0.1130
vn -0.9830 -0.1024 0.1527
vn 0.9830 -0.1024 0.1527
vn 0.9907 0.0759 -0.1130
vn -0.9908 0.1193 -0.0640
vn -0.9829 -0.1619 0.0877
vn 0.9829 -0.1620 0.0875
vn 0.9908 0.1192 -0.0637
vn -0.9889 0.1475 -0.0172
vn -0.9849 -0.1715 0.0227
vn 0.9849 -0.1716 0.0229
vn 0.9890 0.1472 -0.0174
vn 0.9852 -0.1211 -0.1211
vn -0.9486 0.3149 0.0324
vn -0.9483 -0.3158 -0.0317
vn -0.9488 0.2897 0.1262
vn -0.9487 -0.2915 -0.1226
vn -0.9487 -0.2174 -0.2297
vn -0.9486 0.1232 0.2916
vn -0.9486 -0.1266 -0.2900
vn -0.9486 0.0621 0.3103
vn -0.9487 -0.0627 -0.3100
vn -0.9487 0.0265 0.3151
vn -0.9486 -0.0259 -0.3154
vn -0.9486 -0.0499 0.3125
vn -0.9485 0.0549 -0.3121
vn -0.9487 -0.1764 0.2625
vn -0.9487 0.1762 -0.2626
vn -0.9487 -0.2779 0.1508
vn -0.9488 0.2787 -0.1485
vn -0.9484 -0.3146 0.0385
vn -0.9485 0.3143 -0.0391
vn 0.0000 -0.0830 -0.9965
vn 0.0000 0.1653 -0.9862
vn 0.0000 0.5575 -0.8302
vn 0.0000 0.8828 -0.4697
vn 0.0000 0.9929 -0.1188
vn 0.9486 0.1229 0.2915
vn 0.9487 0.0623 0.3100
vn 0.9486 0.0268 0.3153
vn 0.9486 -0.0502 0.3126
vn 0.9487 -0.1763 0.2625
vn 0.9487 -0.2779 0.1505
vn 0.9485 -0.3144 0.0388
vn 0.9486 -0.3150 -0.0305
vn 0.9490 -0.2902 -0.1234
vn 0.9487 -0.2174 -0.2296
vn 0.9485 -0.1263 -0.2904
vn 0.9486 -0.0630 -0.3102
vn 0.9487 -0.0262 -0.3151
vn 0.9485 0.0552 -0.3118
vn 0.0000 0.0839 0.9965
vn 0.0000 -0.1641 0.9864
vn 0.9487 0.1762 -0.2626
vn 0.0000 -0.5574 0.8302
vn 0.9487 0.2795 -0.1480
vn 0.0000 -0.8791 0.4766
vn 0.9483 0.3148 -0.0399
vn 0.0000 -0.9919 0.1268
vn 0.9762 -0.2169 -0.0000
vn 0.0000 0.0000 1.0000
vn -1.0000 0.0012 -0.0000
vn 0.2356 0.0003 0.9718
vn -0.0049 -0.0004 1.0000
vn -0.0061 -0.0014 1.0000
vn 0.2903 0.0003 0.9569
vn 1.0000 0.0012 -0.0000
vn 0.2076 -0.9782 -0.0000
vn -0.0045 -1.0000 -0.0000
vn 0.5293 0.0015 -0.8484
vn 0.6588 0.0008 -0.7523
vn 0.2897 0.0004 -0.9571
vn 0.2352 0.0003 -0.9719
vn -0.0054 -0.0004 -1.0000
vn -0.0043 -0.0010 -1.0000
vn 0.6580 0.0018 0.7530
vn 0.5285 0.0007 0.8489
vn -0.9762 -0.2169 -0.0000
vn 0.5408 -0.8411 -0.0000
vn 0.1691 0.9856 -0.0000
vn 0.4153 0.9097 -0.0000
vn 0.4158 0.9095 -0.0000
vn 0.1693 0.9856 -0.0000
vn -0.0032 1.0000 -0.0000
vn -0.0004 0.2159 0.9764
vn 0.0004 0.0757 0.9971
vn 0.0004 0.0761 0.9971
vn -0.0004 0.2163 0.9763
vn 0.0008 -0.3043 -0.9526
vn -0.0008 0.0125 -0.9999
vn -0.0008 0.0138 -0.9999
vn 0.0008 -0.3030 -0.9530
vn -0.0016 0.1718 -0.9851
vn -0.0016 0.1724 -0.9850
vn 0.0022 -0.3065 0.9519
vn 0.0022 -0.3066 0.9518
vn -0.0051 0.9573 -0.2890
vn -0.0050 0.9591 -0.2831
vn -0.0036 0.8099 0.5866
vn -0.0023 0.5774 0.8164
vn -0.0023 0.5776 0.8163
vn -0.0036 0.8080 0.5891
vn 0.0035 -0.5866 0.8099
vn 0.0035 -0.5891 0.8080
vn 0.0050 -0.9989 0.0470
vn 0.0050 -0.9989 0.0469
vn 0.0051 -0.9992 0.0407
vn 0.0051 -0.9992 0.0408
vn 0.0016 -0.4535 -0.8912
vn 0.0016 -0.4530 -0.8915
vn -0.0011 0.0163 -0.9999
vn 0.0011 -0.3007 -0.9537
vn 0.0011 -0.3020 -0.9533
vn -0.0011 0.0149 -0.9999
vn 0.0005 0.0757 0.9971
vn -0.0005 0.2159 0.9764
vn -0.0005 0.2153 0.9765
vn 0.0005 0.0751 0.9972
vn -0.0031 0.5660 0.8244
vn -0.0031 0.5682 0.8229
vn 0.0022 -0.4489 -0.8936
vn 0.0022 -0.4488 -0.8936
vn -0.0049 0.7945 0.6072
vn -0.0049 0.7942 0.6076
vn -0.0070 0.9707 -0.2401
vn -0.0070 0.9709 -0.2392
vn -0.0022 0.1768 -0.9842
vn -0.0022 0.1769 -0.9842
vn 0.0069 -1.0000 -0.0036
vn 0.0069 -1.0000 -0.0045
vn 0.0050 -0.6072 0.7945
vn 0.0032 -0.3173 0.9483
vn 0.0032 -0.3199 0.9474
vn 0.0050 -0.6076 0.7943
vn -0.8589 0.4013 0.3181
vn -0.8581 -0.4026 0.3187
vn -0.8589 -0.4013 -0.3181
vn -0.8581 0.4026 -0.3187
vn 0.3107 0.4381 0.8435
vn 0.3102 -0.4373 0.8441
vn 0.8589 0.4013 -0.3181
vn 0.8581 -0.4026 -0.3187
vn -0.6382 0.4310 0.6379
vn -0.6378 -0.4321 0.6376
vn -0.3102 0.4373 0.8441
vn -0.3107 -0.4381 0.8435
vn -0.6382 -0.4310 -0.6379
vn -0.6378 0.4321 -0.6376
vn -0.3102 -0.4373 -0.8441
vn -0.3107 0.4381 -0.8435
vn 0.6378 0.4321 0.6376
vn 0.6382 -0.4310 0.6379
vn 0.8581 0.4026 0.3187
vn 0.8589 -0.4013 0.3181
vn 0.6382 0.4310 -0.6379
vn 0.6378 -0.4321 -0.6376
vn 0.3102 0.4373 -0.8441
vn 0.3107 -0.4381 -0.8435
vn -0.0180 0.9407 0.3389
vn 0.0182 0.9406 0.3390
vn 0.0180 -0.9407 0.3389
vn -0.0182 -0.9406 0.3390
vn 0.4251 0.9050 0.0188
vn 0.4250 0.9050 -0.0185
vn 0.4251 -0.9050 -0.0188
vn 0.4250 -0.9050 0.0185
vn 0.0180 0.9407 -0.3389
vn -0.0182 0.9406 -0.3390
vn -0.0180 -0.9407 -0.3389
vn 0.0182 -0.9406 -0.3390
vn -0.4251 -0.9050 0.0187
vn -0.4250 -0.9050 -0.0185
vn -0.4251 0.9050 -0.0188
vn -0.4250 0.9050 0.0185
vn -0.3844 0.9168 0.1082
vn -0.3850 -0.9165 0.1087
vn -0.3844 -0.9168 -0.1082
vn -0.3850 0.9165 -0.1087
vn 0.1055 0.9406 0.3228
vn 0.1048 -0.9408 0.3223
vn 0.3844 0.9168 -0.1082
vn 0.3850 -0.9165 -0.1087
vn -0.2531 0.9376 0.2386
vn -0.2543 -0.9371 0.2393
vn -0.1048 0.9408 0.3223
vn -0.1055 -0.9406 0.3228
vn -0.2531 -0.9376 -0.2386
vn -0.2543 0.9371 -0.2393
vn -0.1048 -0.9408 -0.3223
vn -0.1055 0.9406 -0.3228
vn 0.2543 0.9371 0.2393
vn 0.2531 -0.9376 0.2386
vn 0.3850 0.9165 0.1087
vn 0.3844 -0.9168 0.1082
vn 0.2531 0.9376 -0.2386
vn 0.2543 -0.9371 -0.2393
vn 0.1048 0.9408 -0.3223
vn 0.1055 -0.9406 -0.3228
# 366 vertex normals

vt 0.6413 0.2770 0.0000
vt 0.6413 0.2824 0.0000
vt 0.0573 0.2824 0.0000
vt 0.0573 0.2770 0.0000
vt 0.0110 0.2509 0.0000
vt 0.0056 0.2509 0.0000
vt 0.0056 0.1068 0.0000
vt 0.0110 0.1068 0.0000
vt 0.0573 0.0807 0.0000
vt 0.0573 0.0753 0.0000
vt 0.6413 0.0753 0.0000
vt 0.6413 0.0807 0.0000
vt 0.6931 0.2509 0.0000
vt 0.6877 0.2509 0.0000
vt 0.6877 0.1068 0.0000
vt 0.6931 0.1068 0.0000
vt 0.0346 0.4654 0.0000
vt 0.0346 0.3213 0.0000
vt 0.0540 0.3213 0.0000
vt 0.0540 0.4654 0.0000
vt 0.0573 0.2509 0.0000
vt 0.0573 0.1068 0.0000
vt 0.6413 0.1068 0.0000
vt 0.6413 0.2509 0.0000
vt 0.7815 0.8824 0.0000
vt 0.7652 0.7435 0.0000
vt 0.7786 0.7419 0.0000
vt 0.7949 0.8815 0.0000
vt 0.7639 0.8757 0.0000
vt 0.7506 0.8777 0.0000
vt 0.7305 0.7392 0.0000
vt 0.7437 0.7366 0.0000
vt 0.7812 0.8858 0.0000
vt 0.7942 0.8897 0.0000
vt 0.7294 0.7361 0.0000
vt 0.7409 0.7289 0.0000
vt 0.7902 0.8970 0.0000
vt 0.7798 0.8883 0.0000
vt 0.7274 0.7339 0.0000
vt 0.7352 0.7229 0.0000
vt 0.7836 0.9022 0.0000
vt 0.7775 0.8901 0.0000
vt 0.7247 0.7328 0.0000
vt 0.7275 0.7195 0.0000
vt 0.7799 0.9037 0.0000
vt 0.7757 0.8909 0.0000
vt 0.7235 0.7191 0.0000
vt 0.7228 0.7325 0.0000
vt 0.5040 0.9793 0.0000
vt 0.5014 0.9661 0.0000
vt 0.4939 0.9662 0.0000
vt 0.4907 0.9794 0.0000
vt 0.4375 0.7171 0.0000
vt 0.4383 0.7305 0.0000
vt 0.4311 0.7324 0.0000
vt 0.4246 0.7204 0.0000
vt 0.4791 0.9732 0.0000
vt 0.4879 0.9630 0.0000
vt 0.4261 0.7370 0.0000
vt 0.4149 0.7294 0.0000
vt 0.4713 0.9623 0.0000
vt 0.4840 0.9574 0.0000
vt 0.4238 0.7434 0.0000
vt 0.4103 0.7420 0.0000
vt 0.4698 0.9558 0.0000
vt 0.4830 0.9534 0.0000
vt 0.4104 0.7486 0.0000
vt 0.4238 0.7475 0.0000
vt 0.4488 0.7762 0.0000
vt 0.4621 0.7747 0.0000
vt 0.4497 0.9256 0.0000
vt 0.4364 0.9275 0.0000
vt 0.7805 0.7395 0.0000
vt 0.7971 0.8814 0.0000
vt 0.7792 0.8825 0.0000
vt 0.7628 0.7415 0.0000
vt 0.7964 0.8904 0.0000
vt 0.7790 0.8851 0.0000
vt 0.7919 0.8985 0.0000
vt 0.7781 0.8869 0.0000
vt 0.7846 0.9042 0.0000
vt 0.7765 0.8881 0.0000
vt 0.7805 0.9055 0.0000
vt 0.7750 0.8884 0.0000
vt 0.5045 0.9818 0.0000
vt 0.5010 0.9642 0.0000
vt 0.4901 0.9817 0.0000
vt 0.4945 0.9640 0.0000
vt 0.4776 0.9749 0.0000
vt 0.4895 0.9612 0.0000
vt 0.4692 0.9631 0.0000
vt 0.4861 0.9565 0.0000
vt 0.4676 0.9562 0.0000
vt 0.4853 0.9530 0.0000
vt 0.4463 0.7743 0.0000
vt 0.4641 0.7722 0.0000
vt 0.6614 0.6395 0.0000
vt 0.6614 0.4975 0.0000
vt 0.6695 0.4975 0.0000
vt 0.6695 0.6395 0.0000
vt 0.6695 0.6421 0.0000
vt 0.6614 0.6421 0.0000
vt 0.6695 0.6441 0.0000
vt 0.6614 0.6441 0.0000
vt 0.6431 0.0450 0.0000
vt 0.6431 0.0530 0.0000
vt 0.6411 0.0530 0.0000
vt 0.6411 0.0450 0.0000
vt 0.6395 0.0530 0.0000
vt 0.6395 0.0450 0.0000
vt 0.0216 0.0638 0.0000
vt 0.0216 0.0557 0.0000
vt 0.3079 0.0559 0.0000
vt 0.3079 0.0640 0.0000
vt 0.3610 0.0450 0.0000
vt 0.3610 0.0530 0.0000
vt 0.3546 0.0450 0.0000
vt 0.3546 0.0530 0.0000
vt 0.3490 0.0450 0.0000
vt 0.3490 0.0530 0.0000
vt 0.6876 0.4998 0.0000
vt 0.6876 0.4941 0.0000
vt 0.6958 0.4941 0.0000
vt 0.6958 0.4998 0.0000
vt 0.6876 0.5035 0.0000
vt 0.6958 0.5035 0.0000
vt 0.6876 0.6855 0.0000
vt 0.6958 0.6855 0.0000
vt 0.7459 0.7362 0.0000
vt 0.7664 0.8776 0.0000
vt 0.7487 0.8802 0.0000
vt 0.7429 0.7277 0.0000
vt 0.7365 0.7210 0.0000
vt 0.7280 0.7173 0.0000
vt 0.7236 0.7171 0.0000
vt 0.4373 0.7145 0.0000
vt 0.4234 0.7183 0.0000
vt 0.4131 0.7282 0.0000
vt 0.4080 0.7417 0.0000
vt 0.4082 0.7488 0.0000
vt 0.4522 0.9275 0.0000
vt 0.4345 0.9300 0.0000
vt 0.7283 0.7397 0.0000
vt 0.7540 0.7350 0.0000
vt 0.7745 0.8764 0.0000
vt 0.7676 0.8857 0.0000
vt 0.7499 0.8883 0.0000
vt 0.7275 0.7373 0.0000
vt 0.7527 0.7261 0.0000
vt 0.7446 0.7273 0.0000
vt 0.7261 0.7358 0.0000
vt 0.7514 0.7171 0.0000
vt 0.7433 0.7182 0.0000
vt 0.7242 0.7350 0.0000
vt 0.0173 0.0638 0.0000
vt 0.0080 0.0638 0.0000
vt 0.0080 0.0557 0.0000
vt 0.0173 0.0557 0.0000
vt 0.7227 0.7351 0.0000
vt 0.4385 0.7325 0.0000
vt 0.4322 0.7343 0.0000
vt 0.3222 0.0640 0.0000
vt 0.3222 0.0559 0.0000
vt 0.4280 0.7383 0.0000
vt 0.3364 0.0640 0.0000
vt 0.3364 0.0559 0.0000
vt 0.4260 0.7437 0.0000
vt 0.4684 0.9632 0.0000
vt 0.4700 0.9775 0.0000
vt 0.4619 0.9785 0.0000
vt 0.4603 0.9641 0.0000
vt 0.4261 0.7473 0.0000
vt 0.4594 0.9572 0.0000
vt 0.4534 0.9356 0.0000
vt 0.4357 0.9381 0.0000
vt 0.4382 0.7752 0.0000
vt 0.0099 0.5131 0.0000
vt 0.0099 0.5083 0.0000
vt 0.6405 0.5083 0.0000
vt 0.6405 0.5131 0.0000
vt 0.0051 0.5130 0.0000
vt 0.0097 0.7004 0.0000
vt 0.0049 0.7004 0.0000
vt 0.6406 0.7001 0.0000
vt 0.6406 0.7051 0.0000
vt 0.0097 0.7051 0.0000
vt 0.6453 0.5131 0.0000
vt 0.6454 0.7001 0.0000
vt 0.8083 0.0757 0.0000
vt 0.9952 0.0757 0.0000
vt 0.9952 0.7064 0.0000
vt 0.8078 0.7065 0.0000
vt 0.3372 0.7385 0.0000
vt 0.3503 0.7355 0.0000
vt 0.3747 0.8739 0.0000
vt 0.3615 0.8763 0.0000
vt 0.3896 0.7417 0.0000
vt 0.4079 0.8811 0.0000
vt 0.3945 0.8821 0.0000
vt 0.3762 0.7435 0.0000
vt 0.3360 0.7354 0.0000
vt 0.3473 0.7279 0.0000
vt 0.4073 0.8893 0.0000
vt 0.3943 0.8855 0.0000
vt 0.3339 0.7333 0.0000
vt 0.3414 0.7220 0.0000
vt 0.4035 0.8966 0.0000
vt 0.3929 0.8881 0.0000
vt 0.3312 0.7322 0.0000
vt 0.3336 0.7189 0.0000
vt 0.3970 0.9019 0.0000
vt 0.3906 0.8899 0.0000
vt 0.3293 0.7320 0.0000
vt 0.3296 0.7186 0.0000
vt 0.3933 0.9034 0.0000
vt 0.3889 0.8907 0.0000
vt 0.0408 0.7394 0.0000
vt 0.0371 0.7263 0.0000
vt 0.0436 0.7253 0.0000
vt 0.0448 0.7387 0.0000
vt 0.1185 0.9831 0.0000
vt 0.1120 0.9841 0.0000
vt 0.1116 0.9705 0.0000
vt 0.1157 0.9699 0.0000
vt 0.0350 0.7429 0.0000
vt 0.0256 0.7331 0.0000
vt 0.0990 0.9810 0.0000
vt 0.1050 0.9689 0.0000
vt 0.0314 0.7486 0.0000
vt 0.0185 0.7443 0.0000
vt 0.0888 0.9725 0.0000
vt 0.0998 0.9645 0.0000
vt 0.0309 0.7561 0.0000
vt 0.0176 0.7576 0.0000
vt 0.0840 0.9601 0.0000
vt 0.0972 0.9575 0.0000
vt 0.0490 0.9356 0.0000
vt 0.0622 0.9333 0.0000
vt 0.0737 0.7791 0.0000
vt 0.0604 0.7808 0.0000
vt 0.3525 0.7350 0.0000
vt 0.3772 0.8757 0.0000
vt 0.3597 0.8788 0.0000
vt 0.3350 0.7390 0.0000
vt 0.3492 0.7266 0.0000
vt 0.3341 0.7366 0.0000
vt 0.3426 0.7201 0.0000
vt 0.3327 0.7352 0.0000
vt 0.3340 0.7167 0.0000
vt 0.3308 0.7345 0.0000
vt 0.3296 0.7166 0.0000
vt 0.3292 0.7346 0.0000
vt 0.0434 0.7227 0.0000
vt 0.0451 0.7406 0.0000
vt 0.0364 0.7241 0.0000
vt 0.0415 0.7415 0.0000
vt 0.0240 0.7315 0.0000
vt 0.0366 0.7445 0.0000
vt 0.0163 0.7436 0.0000
vt 0.0335 0.7493 0.0000
vt 0.0153 0.7578 0.0000
vt 0.0332 0.7558 0.0000
vt 0.0472 0.9382 0.0000
vt 0.0647 0.9351 0.0000
vt 0.6497 0.6401 0.0000
vt 0.6497 0.4982 0.0000
vt 0.6579 0.4982 0.0000
vt 0.6579 0.6401 0.0000
vt 0.6579 0.6427 0.0000
vt 0.6497 0.6427 0.0000
vt 0.6579 0.6448 0.0000
vt 0.6497 0.6448 0.0000
vt 0.6405 0.0555 0.0000
vt 0.6405 0.0635 0.0000
vt 0.6385 0.0635 0.0000
vt 0.6385 0.0555 0.0000
vt 0.6369 0.0635 0.0000
vt 0.6369 0.0555 0.0000
vt 0.3584 0.0635 0.0000
vt 0.3548 0.0635 0.0000
vt 0.3548 0.0555 0.0000
vt 0.3584 0.0555 0.0000
vt 0.3492 0.0635 0.0000
vt 0.3492 0.0555 0.0000
vt 0.6819 0.4956 0.0000
vt 0.6819 0.5013 0.0000
vt 0.6737 0.5013 0.0000
vt 0.6737 0.4956 0.0000
vt 0.6819 0.5079 0.0000
vt 0.6737 0.5079 0.0000
vt 0.6819 0.6899 0.0000
vt 0.6737 0.6899 0.0000
vt 0.3915 0.7392 0.0000
vt 0.4102 0.8809 0.0000
vt 0.3738 0.7416 0.0000
vt 0.4095 0.8899 0.0000
vt 0.4052 0.8980 0.0000
vt 0.3980 0.9039 0.0000
vt 0.3939 0.9053 0.0000
vt 0.1191 0.9856 0.0000
vt 0.1120 0.9864 0.0000
vt 0.0979 0.9830 0.0000
vt 0.0870 0.9738 0.0000
vt 0.0818 0.9605 0.0000
vt 0.0579 0.7789 0.0000
vt 0.0756 0.7766 0.0000
vt 0.3922 0.8823 0.0000
vt 0.3605 0.7336 0.0000
vt 0.3853 0.8743 0.0000
vt 0.3611 0.8869 0.0000
vt 0.3787 0.8838 0.0000
vt 0.3921 0.8849 0.0000
vt 0.3509 0.7262 0.0000
vt 0.3590 0.7247 0.0000
vt 0.3912 0.8866 0.0000
vt 0.3574 0.7157 0.0000
vt 0.3493 0.7171 0.0000
vt 0.3896 0.8879 0.0000
vt 0.0249 0.0519 0.0000
vt 0.0156 0.0519 0.0000
vt 0.0156 0.0437 0.0000
vt 0.0249 0.0437 0.0000
vt 0.3881 0.8883 0.0000
vt 0.0292 0.0519 0.0000
vt 0.0292 0.0437 0.0000
vt 0.1153 0.9680 0.0000
vt 0.1117 0.9682 0.0000
vt 0.3155 0.0439 0.0000
vt 0.3226 0.0439 0.0000
vt 0.3225 0.0521 0.0000
vt 0.3155 0.0521 0.0000
vt 0.1060 0.9668 0.0000
vt 0.3370 0.0439 0.0000
vt 0.3370 0.0521 0.0000
vt 0.1017 0.9632 0.0000
vt 0.0104 0.7298 0.0000
vt 0.0129 0.7438 0.0000
vt 0.0048 0.7452 0.0000
vt 0.0023 0.7312 0.0000
vt 0.0994 0.9571 0.0000
vt 0.0073 0.7593 0.0000
vt 0.0661 0.9432 0.0000
vt 0.0486 0.9463 0.0000
vt 0.0391 0.9396 0.0000
vt 0.1387 0.7963 0.0000
vt 0.2825 0.7963 0.0000
vt 0.2825 0.8143 0.0000
vt 0.1387 0.8143 0.0000
vt 0.2825 0.8454 0.0000
vt 0.2825 0.8550 0.0000
vt 0.1387 0.8550 0.0000
vt 0.1387 0.8454 0.0000
vt 0.2825 0.8278 0.0000
vt 0.2960 0.8278 0.0000
vt 0.2921 0.8454 0.0000
vt 0.1387 0.8278 0.0000
vt 0.1291 0.8454 0.0000
vt 0.1252 0.8278 0.0000
vt 0.5135 0.8307 0.0000
vt 0.5266 0.8278 0.0000
vt 0.5266 0.8458 0.0000
vt 0.5173 0.8479 0.0000
vt 0.5266 0.8143 0.0000
vt 0.5266 0.7967 0.0000
vt 0.6704 0.7967 0.0000
vt 0.6704 0.8143 0.0000
vt 0.5265 0.8553 0.0000
vt 0.6704 0.8458 0.0000
vt 0.6705 0.8553 0.0000
vt 0.6836 0.8307 0.0000
vt 0.6798 0.8479 0.0000
vt 0.6797 0.8479 0.0000
vt 0.6835 0.8307 0.0000
vt 0.6704 0.8278 0.0000
vt 0.5172 0.8479 0.0000
vt 0.5134 0.8307 0.0000
vt 0.6704 0.8554 0.0000
vt 0.5266 0.8554 0.0000
vt 0.5265 0.8144 0.0000
vt 0.6705 0.8144 0.0000
vt 0.7400 0.7077 0.0000
vt 0.7266 0.7077 0.0000
vt 0.7268 0.0747 0.0000
vt 0.7403 0.0747 0.0000
vt 0.7164 0.7077 0.0000
vt 0.7029 0.7076 0.0000
vt 0.7037 0.0746 0.0000
vt 0.7171 0.0747 0.0000
vt 0.7006 0.7076 0.0000
vt 0.7014 0.0746 0.0000
vt 0.7256 0.0747 0.0000
vt 0.7252 0.7077 0.0000
vt 0.7477 0.7076 0.0000
vt 0.7433 0.7076 0.0000
vt 0.7436 0.0747 0.0000
vt 0.7480 0.0747 0.0000
vt 0.7413 0.7076 0.0000
vt 0.7415 0.0747 0.0000
vt 0.7231 0.7077 0.0000
vt 0.7237 0.0747 0.0000
vt 0.7187 0.7077 0.0000
vt 0.7193 0.0747 0.0000
vt 0.7972 0.7071 0.0000
vt 0.7838 0.7071 0.0000
vt 0.7814 0.0741 0.0000
vt 0.7949 0.0741 0.0000
vt 0.7742 0.7071 0.0000
vt 0.7607 0.7072 0.0000
vt 0.7577 0.0742 0.0000
vt 0.7711 0.0741 0.0000
vt 0.7564 0.0743 0.0000
vt 0.7594 0.7072 0.0000
vt 0.7816 0.7071 0.0000
vt 0.7791 0.0741 0.0000
vt 0.7573 0.7073 0.0000
vt 0.7543 0.0743 0.0000
vt 0.7529 0.7073 0.0000
vt 0.7499 0.0743 0.0000
vt 0.7995 0.7071 0.0000
vt 0.7972 0.0741 0.0000
vt 0.7772 0.7071 0.0000
vt 0.7746 0.0741 0.0000
vt 0.7753 0.7071 0.0000
vt 0.7725 0.0741 0.0000
vt 0.6502 0.2770 0.0000
vt 0.6531 0.2770 0.0000
vt 0.6531 0.2824 0.0000
vt 0.6502 0.2824 0.0000
vt 0.6502 0.0753 0.0000
vt 0.6531 0.0753 0.0000
vt 0.6531 0.0807 0.0000
vt 0.6502 0.0807 0.0000
vt 0.0110 0.2798 0.0000
vt 0.0110 0.2894 0.0000
vt 0.0056 0.2894 0.0000
vt 0.0056 0.2798 0.0000
vt 0.0485 0.0807 0.0000
vt 0.0456 0.0807 0.0000
vt 0.0456 0.0753 0.0000
vt 0.0485 0.0753 0.0000
vt 0.6472 0.2770 0.0000
vt 0.6472 0.2824 0.0000
vt 0.6443 0.2770 0.0000
vt 0.6443 0.2824 0.0000
vt 0.6472 0.0753 0.0000
vt 0.6472 0.0807 0.0000
vt 0.6443 0.0753 0.0000
vt 0.6443 0.0807 0.0000
vt 0.0110 0.2702 0.0000
vt 0.0056 0.2702 0.0000
vt 0.0110 0.2605 0.0000
vt 0.0056 0.2605 0.0000
vt 0.0514 0.0807 0.0000
vt 0.0514 0.0753 0.0000
vt 0.0544 0.0807 0.0000
vt 0.0544 0.0753 0.0000
vt 0.6413 0.2749 0.0000
vt 0.0573 0.2749 0.0000
vt 0.0573 0.2845 0.0000
vt 0.6413 0.2845 0.0000
vt 0.0131 0.2509 0.0000
vt 0.0131 0.1068 0.0000
vt 0.0035 0.1068 0.0000
vt 0.0035 0.2509 0.0000
vt 0.0573 0.0828 0.0000
vt 0.6413 0.0828 0.0000
vt 0.6413 0.0732 0.0000
vt 0.0573 0.0732 0.0000
vt 0.6952 0.2509 0.0000
vt 0.6952 0.1068 0.0000
vt 0.6856 0.1068 0.0000
vt 0.6856 0.2509 0.0000
vt 0.6502 0.2749 0.0000
vt 0.6531 0.2749 0.0000
vt 0.6531 0.2845 0.0000
vt 0.6502 0.2845 0.0000
vt 0.6502 0.0732 0.0000
vt 0.6531 0.0732 0.0000
vt 0.6531 0.0828 0.0000
vt 0.6502 0.0828 0.0000
vt 0.0131 0.2798 0.0000
vt 0.0131 0.2894 0.0000
vt 0.0035 0.2894 0.0000
vt 0.0035 0.2798 0.0000
vt 0.0485 0.0828 0.0000
vt 0.0456 0.0828 0.0000
vt 0.0456 0.0732 0.0000
vt 0.0485 0.0732 0.0000
vt 0.6472 0.2749 0.0000
vt 0.6472 0.2845 0.0000
vt 0.6443 0.2749 0.0000
vt 0.6443 0.2845 0.0000
vt 0.6472 0.0732 0.0000
vt 0.6472 0.0828 0.0000
vt 0.6443 0.0732 0.0000
vt 0.6443 0.0828 0.0000
vt 0.0131 0.2702 0.0000
vt 0.0035 0.2702 0.0000
vt 0.0131 0.2605 0.0000
vt 0.0035 0.2605 0.0000
vt 0.0514 0.0828 0.0000
vt 0.0514 0.0732 0.0000
vt 0.0544 0.0828 0.0000
vt 0.0544 0.0732 0.0000
vt 0.6607 0.1068 0.0000
vt 0.6607 0.2509 0.0000
vt 0.6607 0.2734 0.0000
vt 0.0159 0.2614 0.0000
vt 0.0241 0.2509 0.0000
vt 0.0241 0.2689 0.0000
vt 0.0241 0.1068 0.0000
vt 0.0159 0.0963 0.0000
vt 0.0241 0.0888 0.0000
vt 0.6607 0.0843 0.0000
vt 0.6828 0.0963 0.0000
vt 0.6745 0.1068 0.0000
vt 0.6745 0.0888 0.0000
vt 0.6745 0.2509 0.0000
vt 0.6828 0.2614 0.0000
vt 0.6745 0.2689 0.0000
vt 0.0380 0.0843 0.0000
vt 0.0380 0.1068 0.0000
vt 0.0380 0.2509 0.0000
vt 0.0380 0.2734 0.0000
vt 0.6574 0.4654 0.0000
vt 0.6574 0.3213 0.0000
vt 0.6712 0.3213 0.0000
vt 0.6712 0.4654 0.0000
vt 0.6380 0.4654 0.0000
vt 0.6380 0.3213 0.0000
vt 0.6822 0.3213 0.0000
vt 0.6822 0.4654 0.0000
vt 0.0208 0.4654 0.0000
vt 0.0208 0.3213 0.0000
vt 0.0208 0.3033 0.0000
vt 0.0346 0.2988 0.0000
vt 0.0540 0.2973 0.0000
vt 0.6380 0.2973 0.0000
vt 0.6574 0.2988 0.0000
vt 0.6712 0.3033 0.0000
vt 0.6795 0.3108 0.0000
vt 0.6795 0.4759 0.0000
vt 0.6712 0.4834 0.0000
vt 0.6574 0.4879 0.0000
vt 0.6380 0.4894 0.0000
vt 0.0540 0.4894 0.0000
vt 0.0346 0.4879 0.0000
vt 0.0208 0.4834 0.0000
vt 0.0125 0.4759 0.0000
vt 0.0098 0.4654 0.0000
vt 0.0098 0.3213 0.0000
vt 0.0125 0.3108 0.0000
# 552 texture coords

g Student_Desk
usemtl Material__18
s 1
f 1/1/1 2/2/2 3/3/3 4/4/4 
f 5/5/5 6/6/6 7/7/7 8/8/8 
f 9/9/9 10/10/10 11/11/11 12/12/12 
f 13/13/13 14/14/14 15/15/15 16/16/16 
f 17/17/17 18/18/17 19/19/17 20/20/17 
f 21/21/18 22/22/18 23/23/18 24/24/18 
f 25/25/19 26/26/20 27/27/21 28/28/22 
f 29/29/23 30/30/24 31/31/25 32/32/26 
f 33/33/27 25/25/19 28/28/22 34/34/28 
f 32/32/26 31/31/25 35/35/29 36/36/30 
f 34/34/28 37/37/31 38/38/32 33/33/27 
f 35/35/29 39/39/33 40/40/34 36/36/30 
f 37/37/31 41/41/35 42/42/36 38/38/32 
f 39/39/33 43/43/37 44/44/38 40/40/34 
f 42/42/36 41/41/35 45/45/39 46/46/40 
f 47/47/41 44/44/38 43/43/37 48/48/42 
f 46/46/40 45/45/39 49/49/43 50/50/44 
f 51/51/45 50/50/44 49/49/43 52/52/46 
f 53/53/47 54/54/48 55/55/49 56/56/50 
f 52/52/46 57/57/51 58/58/52 51/51/45 
f 55/55/49 59/59/53 60/60/54 56/56/50 
f 57/57/51 61/61/55 62/62/56 58/58/52 
f 59/59/53 63/63/57 64/64/58 60/60/54 
f 62/62/56 61/61/55 65/65/59 66/66/60 
f 67/67/61 64/64/58 63/63/57 68/68/62 
f 65/65/59 69/69/20 70/70/63 66/66/60 
f 68/68/62 71/71/64 72/72/24 67/67/61 
f 27/27/21 73/73/65 74/74/66 28/28/22 
f 75/75/67 76/76/68 26/26/20 25/25/19 
f 27/27/21 26/26/20 76/76/68 73/73/65 
f 74/74/66 77/77/69 34/34/28 28/28/22 
f 75/75/67 25/25/19 33/33/27 78/78/70 
f 77/77/69 79/79/71 37/37/31 34/34/28 
f 78/78/70 33/33/27 38/38/32 80/80/72 
f 79/79/71 81/81/73 41/41/35 37/37/31 
f 80/80/72 38/38/32 42/42/36 82/82/74 
f 83/83/75 45/45/39 41/41/35 81/81/73 
f 82/82/74 42/42/36 46/46/40 84/84/76 
f 45/45/39 83/83/75 85/85/77 49/49/43 
f 50/50/44 86/86/78 84/84/76 46/46/40 
f 49/49/43 85/85/77 87/87/79 52/52/46 
f 86/86/78 50/50/44 51/51/45 88/88/80 
f 52/52/46 87/87/79 89/89/81 57/57/51 
f 88/88/80 51/51/45 58/58/52 90/90/82 
f 57/57/51 89/89/81 91/91/83 61/61/55 
f 90/90/82 58/58/52 62/62/56 92/92/84 
f 93/93/85 65/65/59 61/61/55 91/91/83 
f 92/92/84 62/62/56 66/66/60 94/94/86 
f 93/93/85 95/95/68 69/69/20 65/65/59 
f 70/70/63 69/69/20 95/95/68 96/96/65 
f 70/70/63 96/96/65 94/94/86 66/66/60 
s 2
f 97/97/87 98/98/17 76/99/17 75/100/87 
f 97/97/87 75/100/87 78/101/88 99/102/88 
f 99/102/88 78/101/88 80/103/89 100/104/89 
f 100/105/89 80/106/89 82/107/90 101/108/90 
f 101/108/90 82/107/90 84/109/91 102/110/91 
f 83/111/92 103/112/92 104/113/93 85/114/93 
f 105/115/94 102/110/91 84/109/91 86/116/94 
f 106/117/95 105/115/94 86/116/94 88/118/95 
f 107/119/96 106/117/95 88/118/95 90/120/96 
f 108/121/97 107/122/96 90/123/96 92/124/97 
f 109/125/98 108/121/97 92/124/97 94/126/98 
f 110/127/18 109/125/98 94/126/98 96/128/18 
s 1
f 111/129/99 112/130/100 29/29/23 32/32/26 
f 30/30/24 29/29/23 112/130/100 98/131/101 
f 111/129/99 32/32/26 36/36/30 113/132/102 
f 113/132/102 36/36/30 40/40/34 114/133/103 
f 114/133/103 40/40/34 44/44/38 115/134/104 
f 115/134/104 44/44/38 47/47/41 103/135/105 
f 53/53/47 104/136/106 103/135/105 47/47/41 
f 116/137/107 104/136/106 53/53/47 56/56/50 
f 117/138/108 116/137/107 56/56/50 60/60/54 
f 118/139/109 117/138/108 60/60/54 64/64/58 
f 118/139/109 64/64/58 67/67/61 119/140/110 
f 72/72/24 71/71/64 110/141/100 120/142/101 
f 72/72/24 120/142/101 119/140/110 67/67/61 
f 97/143/111 31/31/25 30/30/24 98/131/101 
s 2
f 74/144/112 73/145/18 112/130/18 111/129/112 
s 4
f 112/130/113 73/146/113 76/147/113 98/131/113 
s 1
f 31/31/25 97/143/111 99/148/114 35/35/29 
s 2
f 77/149/115 74/144/112 111/129/112 113/150/115 
s 1
f 35/35/29 99/148/114 100/151/116 39/39/33 
s 2
f 79/152/117 77/149/115 113/150/115 114/153/117 
s 1
f 39/39/33 100/151/116 101/154/118 43/43/37 
s 2
f 81/155/119 79/156/117 114/157/117 115/158/119 
s 1
f 43/43/37 101/154/118 102/159/120 48/48/42 
s 2
f 83/111/92 81/155/119 115/158/119 103/112/92 
s 1
f 54/54/48 48/48/42 102/159/120 105/160/121 
f 54/54/48 105/160/121 106/161/122 55/55/49 
s 2
f 87/162/123 85/114/93 104/113/93 116/163/123 
s 1
f 55/55/49 106/161/122 107/164/124 59/59/53 
s 2
f 89/165/125 87/162/123 116/163/123 117/166/125 
s 1
f 59/59/53 107/164/124 108/167/126 63/63/57 
s 2
f 91/168/127 89/169/125 117/170/125 118/171/127 
s 1
f 63/63/57 108/167/126 109/172/128 68/68/62 
s 2
f 93/93/129 91/168/127 118/171/127 119/173/129 
s 1
f 71/71/64 68/68/62 109/172/128 110/141/100 
s 4
f 110/141/113 96/174/113 95/175/113 120/142/113 
s 2
f 95/95/17 93/93/129 119/173/129 120/176/17 
s 1
f 48/48/42 54/54/48 53/53/47 47/47/41 
f 121/177/130 122/178/130 123/179/130 124/180/130 
s 2
f 122/181/131 121/177/131 125/182/131 126/183/131 
s 1
f 127/184/132 128/185/132 126/186/132 125/182/132 
s 2
f 127/184/133 124/180/133 123/187/133 128/188/133 
s 4
f 124/180/134 127/184/135 125/182/136 121/177/137 
f 128/189/138 123/190/139 122/191/140 126/192/141 
s 1
f 129/193/142 130/194/143 131/195/144 132/196/145 
f 133/197/146 134/198/22 135/199/147 136/200/148 
f 130/194/143 129/193/142 137/201/149 138/202/150 
f 134/198/22 139/203/151 140/204/152 135/199/147 
f 137/201/149 141/205/33 142/206/34 138/202/150 
f 139/203/151 143/207/31 144/208/32 140/204/152 
f 141/205/33 145/209/153 146/210/154 142/206/34 
f 143/207/31 147/211/155 148/212/156 144/208/32 
f 145/209/153 149/213/157 150/214/158 146/210/154 
f 151/215/159 152/216/160 148/212/156 147/211/155 
f 153/217/161 154/218/162 155/219/163 156/220/164 
f 157/221/165 158/222/166 159/223/167 160/224/168 
f 153/217/161 161/225/169 162/226/170 154/218/162 
f 158/222/166 163/227/171 164/228/172 159/223/167 
f 161/225/169 165/229/173 166/230/174 162/226/170 
f 163/227/171 167/231/175 168/232/176 164/228/172 
f 165/229/173 169/233/177 170/234/178 166/230/174 
f 168/232/176 167/231/175 171/235/179 172/236/180 
f 173/237/24 170/234/178 169/233/177 174/238/64 
f 175/239/146 172/236/180 171/235/179 176/240/181 
f 131/195/144 130/194/143 177/241/182 178/242/100 
f 132/196/145 179/243/101 180/244/183 129/193/142 
f 178/242/100 179/243/101 132/196/145 131/195/144 
f 181/245/184 177/241/182 130/194/143 138/202/150 
f 180/244/183 182/246/185 137/201/149 129/193/142 
f 183/247/103 181/245/184 138/202/150 142/206/34 
f 182/246/185 184/248/186 141/205/33 137/201/149 
f 185/249/187 183/247/103 142/206/34 146/210/154 
f 184/248/186 186/250/188 145/209/153 141/205/33 
f 187/251/189 185/249/187 146/210/154 150/214/158 
f 186/250/188 188/252/190 149/213/157 145/209/153 
f 155/219/163 189/253/191 187/251/189 150/214/158 
f 156/220/164 149/213/157 188/252/190 190/254/192 
f 191/255/193 189/253/191 155/219/163 154/218/162 
f 190/254/192 192/256/194 153/217/161 156/220/164 
f 162/226/170 193/257/195 191/255/193 154/218/162 
f 192/256/194 194/258/196 161/225/169 153/217/161 
f 166/230/174 195/259/197 193/257/195 162/226/170 
f 194/258/196 196/260/198 165/229/173 161/225/169 
f 166/230/174 170/234/178 197/261/199 195/259/197 
f 196/260/198 198/262/200 169/233/177 165/229/173 
f 173/237/24 199/263/101 197/261/199 170/234/178 
f 200/264/100 199/263/101 173/237/24 174/238/64 
f 174/238/64 169/233/177 198/262/200 200/264/100 
s 2
f 180/265/87 179/266/17 201/267/17 202/268/87 
f 180/265/87 202/268/87 203/269/88 182/270/88 
f 182/270/88 203/269/88 204/271/89 184/272/89 
f 184/273/89 204/274/89 205/275/90 186/276/90 
f 186/276/90 205/275/90 206/277/91 188/278/91 
f 207/279/201 208/280/202 192/281/202 190/282/201 
f 208/280/202 209/283/203 194/284/203 192/281/202 
f 209/285/203 210/286/204 196/287/204 194/288/203 
f 210/286/204 211/289/205 198/290/205 196/287/204 
f 211/289/205 212/291/18 200/292/18 198/290/205 
s 1
f 133/197/146 213/293/65 214/294/66 134/198/22 
f 201/295/68 213/293/65 133/197/146 136/200/148 
f 214/294/66 215/296/69 139/203/151 134/198/22 
f 215/296/69 216/297/71 143/207/31 139/203/151 
f 216/297/71 217/298/206 147/211/155 143/207/31 
f 217/298/206 218/299/207 151/215/159 147/211/155 
f 157/221/165 151/215/159 218/299/207 219/300/208 
f 219/300/208 220/301/209 158/222/166 157/221/165 
f 158/222/166 220/301/209 221/302/210 163/227/171 
f 163/227/171 221/302/210 222/303/211 167/231/175 
f 167/231/175 222/303/211 223/304/212 171/235/179 
f 224/305/68 212/306/65 175/239/146 176/240/181 
f 176/240/181 171/235/179 223/304/212 224/305/68 
f 202/307/213 201/295/68 136/200/148 135/199/147 
s 2
f 214/308/112 213/309/18 178/242/18 177/241/112 
s 4
f 201/310/113 179/243/113 178/242/113 213/311/113 
s 1
f 135/199/147 140/204/152 203/312/214 202/307/213 
s 2
f 214/308/112 177/241/112 181/313/115 215/314/115 
s 1
f 140/204/152 144/208/32 204/315/215 203/312/214 
s 2
f 216/316/117 215/314/115 181/313/115 183/317/117 
s 1
f 144/208/32 148/212/156 205/318/216 204/315/215 
s 2
f 217/319/119 216/320/117 183/321/117 185/322/119 
s 1
f 148/212/156 152/216/160 206/323/217 205/318/216 
s 2
f 218/324/92 217/319/119 185/322/119 187/325/92 
s 1
f 207/326/218 206/323/217 152/216/160 160/224/168 
f 160/224/168 159/223/167 208/327/219 207/326/218 
s 2
f 189/328/220 191/329/221 220/330/221 219/331/220 
s 1
f 159/223/167 164/228/172 209/332/222 208/327/219 
s 2
f 191/329/221 193/333/223 221/334/223 220/330/221 
s 1
f 164/228/172 168/232/176 210/335/224 209/332/222 
s 2
f 193/336/223 195/337/225 222/338/225 221/339/223 
s 1
f 168/232/176 172/236/180 211/340/226 210/335/224 
s 2
f 195/337/225 197/261/227 223/341/227 222/338/225 
s 1
f 211/340/226 172/236/180 175/239/146 212/306/65 
s 4
f 200/264/113 212/342/113 224/343/113 199/263/113 
s 2
f 197/261/227 199/263/17 224/344/17 223/341/227 
s 1
f 149/213/157 156/220/164 155/219/163 150/214/158 
f 157/221/165 160/224/168 152/216/160 151/215/159 
s 2
f 207/279/201 190/282/201 188/278/91 206/277/91 
f 218/324/92 187/325/92 189/328/220 219/331/220 
s 1
f 225/345/228 226/346/228 227/347/228 228/348/228 
s 2
f 229/349/17 226/350/17 225/351/17 230/352/17 
s 4
f 231/353/113 227/354/113 226/355/113 229/349/113 
f 232/356/229 230/352/229 225/357/229 228/358/229 
s 1
f 229/349/230 230/352/230 232/356/230 231/353/230 
s 2
f 227/347/18 231/353/18 232/356/18 228/348/18 
s 1
f 233/359/231 234/360/232 235/361/233 236/362/234 
s 2
f 237/363/235 238/364/235 239/365/235 240/366/235 
s 4
f 236/367/236 235/361/237 241/368/237 242/369/236 
s 1
f 240/370/238 239/371/239 242/372/240 243/373/241 
f 241/368/242 244/374/243 243/373/241 242/372/240 
f 238/375/244 237/376/245 233/359/231 236/362/234 
s 2
f 244/374/246 241/368/246 235/361/246 234/360/246 
s 4
f 242/369/236 239/377/247 238/378/247 236/367/236 
f 233/379/248 237/363/249 240/366/250 243/380/251 
f 233/379/248 243/380/251 244/374/252 234/360/252 
s 1
f 245/381/253 246/382/254 247/383/255 248/384/256 
f 249/385/257 250/386/258 251/387/259 252/388/260 
f 250/386/258 253/389/261 254/390/262 251/387/259 
f 255/391/263 247/383/255 246/382/254 256/392/264 
s 2
f 253/393/265 257/394/265 258/395/266 254/396/266 
s 1
f 257/394/267 259/397/268 260/398/269 258/395/270 
f 248/384/256 260/398/269 259/397/268 245/381/253 
f 256/392/264 261/399/271 262/400/272 255/391/263 
s 2
f 261/399/273 263/401/274 264/402/275 262/400/276 
s 1
f 263/401/277 249/385/257 252/388/260 264/402/278 
f 265/403/279 266/404/280 267/405/281 268/406/282 
f 269/407/283 270/408/284 271/409/285 272/410/286 
f 273/411/287 271/409/285 270/408/284 274/412/288 
f 266/404/280 275/413/289 276/414/290 267/405/281 
f 274/412/288 277/415/291 278/416/292 273/411/287 
s 2
f 277/415/293 279/417/293 280/418/294 278/416/294 
s 1
f 279/419/295 265/403/279 268/406/282 280/420/296 
s 2
f 275/413/297 281/421/297 282/422/298 276/414/298 
s 1
f 281/421/299 283/423/300 284/424/301 282/422/302 
f 272/410/286 284/424/301 283/423/300 269/407/283 
f 285/425/303 14/426/14 13/427/13 286/428/304 
f 287/429/305 16/430/16 15/431/15 288/432/306 
f 289/433/307 4/434/4 3/435/3 290/436/308 
f 291/437/309 8/438/8 7/439/7 292/440/310 
f 293/441/311 285/425/303 286/428/304 294/442/312 
f 295/443/313 293/441/311 294/442/312 296/444/314 
f 1/1/1 295/443/313 296/444/314 2/2/2 
f 297/445/315 287/429/305 288/432/306 298/446/316 
f 299/447/317 297/445/315 298/446/316 300/448/318 
f 11/11/11 299/447/317 300/448/318 12/12/12 
f 301/449/319 289/433/307 290/436/308 302/450/320 
f 303/451/321 301/449/319 302/450/320 304/452/322 
f 5/5/5 303/451/321 304/452/322 6/6/6 
f 305/453/323 291/437/309 292/440/310 306/454/324 
f 307/455/325 305/453/323 306/454/324 308/456/326 
f 9/9/9 307/455/325 308/456/326 10/10/10 
f 309/457/327 1/1/1 4/4/4 310/458/328 
f 311/459/329 3/3/3 2/2/2 312/460/330 
f 313/461/331 5/5/5 8/8/8 314/462/332 
f 315/463/333 7/7/7 6/6/6 316/464/334 
f 317/465/335 9/9/9 12/12/12 318/466/336 
f 319/467/337 11/11/11 10/10/10 320/468/338 
f 321/469/339 13/13/13 16/16/16 322/470/340 
f 323/471/341 15/15/15 14/14/14 324/472/342 
f 14/426/14 285/425/303 325/473/343 324/474/342 
f 13/427/13 321/475/339 326/476/344 286/428/304 
f 16/430/16 287/429/305 327/477/345 322/478/340 
f 15/431/15 323/479/341 328/480/346 288/432/306 
f 4/434/4 289/433/307 329/481/347 310/482/328 
f 3/435/3 311/483/329 330/484/348 290/436/308 
f 8/438/8 291/437/309 331/485/349 314/486/332 
f 7/439/7 315/487/333 332/488/350 292/440/310 
f 285/425/303 293/441/311 333/489/351 325/473/343 
f 286/428/304 326/476/344 334/490/352 294/442/312 
f 333/489/351 293/441/311 295/443/313 335/491/353 
f 334/490/352 336/492/354 296/444/314 294/442/312 
f 335/491/353 295/443/313 1/1/1 309/457/327 
f 336/492/354 312/460/330 2/2/2 296/444/314 
f 287/429/305 297/445/315 337/493/355 327/477/345 
f 288/432/306 328/480/346 338/494/356 298/446/316 
f 337/493/355 297/445/315 299/447/317 339/495/357 
f 338/494/356 340/496/358 300/448/318 298/446/316 
f 339/495/357 299/447/317 11/11/11 319/467/337 
f 340/496/358 318/466/336 12/12/12 300/448/318 
f 289/433/307 301/449/319 341/497/359 329/481/347 
f 290/436/308 330/484/348 342/498/360 302/450/320 
f 341/497/359 301/449/319 303/451/321 343/499/361 
f 342/498/360 344/500/362 304/452/322 302/450/320 
f 343/499/361 303/451/321 5/5/5 313/461/331 
f 344/500/362 316/464/334 6/6/6 304/452/322 
f 291/437/309 305/453/323 345/501/363 331/485/349 
f 292/440/310 332/488/350 346/502/364 306/454/324 
f 345/501/363 305/453/323 307/455/325 347/503/365 
f 346/502/364 348/504/366 308/456/326 306/454/324 
f 347/503/365 307/455/325 9/9/9 317/465/335 
f 348/504/366 320/468/338 10/10/10 308/456/326 
f 23/23/18 349/505/18 350/506/18 24/24/18 
f 335/507/353 309/457/327 24/24/18 350/506/18 
f 310/458/328 21/21/18 24/24/18 309/457/327 
f 343/508/361 313/461/331 351/509/18 341/510/359 
f 314/462/332 352/511/18 351/509/18 313/461/331 
f 331/512/349 345/513/363 352/511/18 314/462/332 
f 318/466/336 23/23/18 22/22/18 317/465/335 
f 23/23/18 318/466/336 340/514/358 349/505/18 
f 328/515/346 323/471/341 353/516/18 338/517/356 
f 324/472/342 354/518/18 353/516/18 323/471/341 
f 354/518/18 324/472/342 325/519/343 333/520/351 
f 333/520/351 335/507/353 350/506/18 354/518/18 
f 349/505/18 353/516/18 354/518/18 350/506/18 
f 349/505/18 340/514/358 338/517/356 353/516/18 
f 347/521/365 317/465/335 22/22/18 355/522/18 
f 21/21/18 356/523/18 355/522/18 22/22/18 
f 21/21/18 310/458/328 329/524/347 356/523/18 
f 341/510/359 351/509/18 356/523/18 329/524/347 
f 352/511/18 355/522/18 356/523/18 351/509/18 
f 355/522/18 352/511/18 345/513/363 347/521/365 
f 357/525/17 358/526/17 359/527/17 360/528/17 
f 358/526/17 357/525/17 361/529/17 362/530/17 
f 360/528/17 359/527/17 315/531/333 316/532/334 
f 20/20/17 19/19/17 362/530/17 361/529/17 
f 17/17/17 363/533/17 364/534/17 18/18/17 
f 337/535/355 339/536/357 18/18/17 364/534/17 
f 339/536/357 319/537/337 19/19/17 18/18/17 
f 320/538/338 362/530/17 19/19/17 319/537/337 
f 362/530/17 320/538/338 348/539/366 358/526/17 
f 358/526/17 348/539/366 346/540/364 359/527/17 
f 359/527/17 346/540/364 332/541/350 315/531/333 
f 344/542/362 342/543/360 360/528/17 316/532/334 
f 342/543/360 330/544/348 357/525/17 360/528/17 
f 330/544/348 311/545/329 361/529/17 357/525/17 
f 312/546/330 20/20/17 361/529/17 311/545/329 
f 20/20/17 312/546/330 336/547/354 17/17/17 
f 17/17/17 336/547/354 334/548/352 363/533/17 
f 326/549/344 321/550/339 363/533/17 334/548/352 
f 322/551/340 364/534/17 363/533/17 321/550/339 
f 364/534/17 322/551/340 327/552/345 337/535/355 
# 332 polygons

