%YAML 1.1
%TAG !u! tag:unity3d.com,2011:
--- !u!114 &11400000
MonoBehaviour:
  m_ObjectHideFlags: 0
  m_CorrespondingSourceObject: {fileID: 0}
  m_PrefabInstance: {fileID: 0}
  m_PrefabAsset: {fileID: 0}
  m_GameObject: {fileID: 0}
  m_Enabled: 1
  m_EditorHideFlags: 0
  m_Script: {fileID: 11500000, guid: e9620f8c34305754d8cc9a7e49e852d9, type: 3}
  m_Name: Strings_en
  m_EditorClassIdentifier: 
  m_LocaleId:
    m_Code: en
  m_SharedData: {fileID: 11400000, guid: 249a03c4c30dc4f438c664c47b6d3c85, type: 2}
  m_Metadata:
    m_Items: []
  m_TableData:
  - m_Id: 491739316224
    m_Localized: Sim in Class
    m_Metadata:
      m_Items: []
  references:
    version: 2
    RefIds: []
